<?xml version="1.0" encoding="ISO-8859-1" standalone="no"?>

<svg 
     version="1.1"
     baseProfile="full"
     xmlns="http://www.w3.org/2000/svg"
     xmlns:xlink="http://www.w3.org/1999/xlink"
     xmlns:ev="http://www.w3.org/2001/xml-events"
     width="11.925221552309312cm"
     height="11.689216003544168cm"
     viewBox="0 0 858 841"
     >
<title>

</title>
<g stroke-linejoin="miter" stroke-dashoffset="0.0000" stroke-dasharray="none" stroke-width="1.0000" stroke-miterlimit="10.000" stroke-linecap="square">
<g id="misc">
</g><!-- misc -->
<g id="layer0">
<g transform="matrix(1.0000, 0.0000, 0.0000, 1.0000, -231.00, -6.0000)">
<clipPath id="clip102569bb-af81-4205-a4e0-a4adff0b89c6">
  <path d="M 231.00 6.0000 L 231.00 848.00 L 1090.0 848.00 L 1090.0 6.0000 z"/>
</clipPath>
<g clip-path="url(#clip1)">
<g fill-opacity=".24706" fill-rule="evenodd" stroke="none" fill="#000000">
  <path d="M 309.65 772.25 L 489.73 772.25 L 489.73 592.17 L 309.65 592.17 z"/>
<title>Quadrilatère q1</title>
<desc>Quadrilatère q1: Polygone A, B, C, D</desc>

</g> <!-- drawing style -->
</g> <!-- clip1 -->
</g> <!-- transform -->
<g transform="matrix(1.0000, 0.0000, 0.0000, 1.0000, -231.00, -6.0000)">
<clipPath id="clip7d23ac94-07ac-40dd-8a11-8a4e15c2c64d">
  <path d="M 231.00 6.0000 L 231.00 848.00 L 1090.0 848.00 L 1090.0 6.0000 z"/>
</clipPath>
<g clip-path="url(#clip2)">
<g fill-opacity=".24706" fill-rule="evenodd" stroke="none" fill="#000000">
  <path d="M 561.76 772.25 L 741.84 772.25 L 741.84 592.17 L 561.76 592.17 z"/>
<title>Quadrilatère q2</title>
<desc>Quadrilatère q2: Polygone E, F, G, H</desc>

</g> <!-- drawing style -->
</g> <!-- clip2 -->
</g> <!-- transform -->
<g transform="matrix(1.0000, 0.0000, 0.0000, 1.0000, -231.00, -6.0000)">
<clipPath id="clipf1bab5b6-2b6b-49b9-a5a0-a4802faf99ed">
  <path d="M 231.00 6.0000 L 231.00 848.00 L 1090.0 848.00 L 1090.0 6.0000 z"/>
</clipPath>
<g clip-path="url(#clip3)">
<g fill-opacity=".24706" fill-rule="evenodd" stroke="none" fill="#000000">
  <path d="M 813.87 772.25 L 993.95 772.25 L 993.95 592.17 L 813.87 592.17 z"/>
<title>Quadrilatère q3</title>
<desc>Quadrilatère q3: Polygone I, J, K, L</desc>

</g> <!-- drawing style -->
</g> <!-- clip3 -->
</g> <!-- transform -->
<g transform="matrix(1.0000, 0.0000, 0.0000, 1.0000, -231.00, -6.0000)">
<clipPath id="clip3cf8f623-f87d-408e-81eb-f6b43d219ad2">
  <path d="M 231.00 6.0000 L 231.00 848.00 L 1090.0 848.00 L 1090.0 6.0000 z"/>
</clipPath>
<g clip-path="url(#clip4)">
<g fill-opacity=".24706" fill-rule="evenodd" stroke="none" fill="#000000">
  <path d="M 309.65 520.14 L 309.65 340.06 L 489.73 340.06 L 489.73 520.14 z"/>
<title>Quadrilatère q4</title>
<desc>Quadrilatère q4: Polygone M, N, O, P</desc>

</g> <!-- drawing style -->
</g> <!-- clip4 -->
</g> <!-- transform -->
<g transform="matrix(1.0000, 0.0000, 0.0000, 1.0000, -231.00, -6.0000)">
<clipPath id="clip9cd10bc3-c400-4136-9300-8bea7b476aa2">
  <path d="M 231.00 6.0000 L 231.00 848.00 L 1090.0 848.00 L 1090.0 6.0000 z"/>
</clipPath>
<g clip-path="url(#clip5)">
<g fill-opacity=".24706" fill-rule="evenodd" stroke="none" fill="#000000">
  <path d="M 561.76 520.14 L 741.84 520.14 L 741.84 340.06 L 561.76 340.06 z"/>
<title>Quadrilatère q5</title>
<desc>Quadrilatère q5: Polygone Q, R, S, T</desc>

</g> <!-- drawing style -->
</g> <!-- clip5 -->
</g> <!-- transform -->
<g transform="matrix(1.0000, 0.0000, 0.0000, 1.0000, -231.00, -6.0000)">
<clipPath id="clip66100b46-3dfd-4bce-8a9e-07881fb32ab8">
  <path d="M 231.00 6.0000 L 231.00 848.00 L 1090.0 848.00 L 1090.0 6.0000 z"/>
</clipPath>
<g clip-path="url(#clip6)">
<g fill-opacity=".24706" fill-rule="evenodd" stroke="none" fill="#000000">
  <path d="M 813.87 340.06 L 993.95 340.06 L 993.95 520.14 L 813.87 520.14 z"/>
<title>Quadrilatère q6</title>
<desc>Quadrilatère q6: Polygone U, V, W, Z</desc>

</g> <!-- drawing style -->
</g> <!-- clip6 -->
</g> <!-- transform -->
<g transform="matrix(1.0000, 0.0000, 0.0000, 1.0000, -231.00, -6.0000)">
<clipPath id="clipea1c5769-7e83-4343-92d7-d84400cd58a3">
  <path d="M 231.00 6.0000 L 231.00 848.00 L 1090.0 848.00 L 1090.0 6.0000 z"/>
</clipPath>
<g clip-path="url(#clip7)">
<g fill-opacity=".24706" fill-rule="evenodd" stroke="none" fill="#000000">
  <path d="M 993.95 268.02 L 813.87 268.02 L 813.87 87.944 L 993.95 87.944 z"/>
<title>Quadrilatère q7</title>
<desc>Quadrilatère q7: Polygone A_1, B_1, C_1, D_1</desc>

</g> <!-- drawing style -->
</g> <!-- clip7 -->
</g> <!-- transform -->
<g transform="matrix(1.0000, 0.0000, 0.0000, 1.0000, -231.00, -6.0000)">
<clipPath id="clip47cdf8cd-a8f2-45df-95f7-5d104a4b27b3">
  <path d="M 231.00 6.0000 L 231.00 848.00 L 1090.0 848.00 L 1090.0 6.0000 z"/>
</clipPath>
<g clip-path="url(#clip8)">
<g fill-opacity=".24706" fill-rule="evenodd" stroke="none" fill="#000000">
  <path d="M 741.84 268.02 L 741.84 87.944 L 561.76 87.944 L 561.76 268.02 z"/>
<title>Quadrilatère q8</title>
<desc>Quadrilatère q8: Polygone E_1, F_1, G_1, H_1</desc>

</g> <!-- drawing style -->
</g> <!-- clip8 -->
</g> <!-- transform -->
<g transform="matrix(1.0000, 0.0000, 0.0000, 1.0000, -231.00, -6.0000)">
<clipPath id="clip58db54b9-fc94-4185-bb59-50555444cc79">
  <path d="M 231.00 6.0000 L 231.00 848.00 L 1090.0 848.00 L 1090.0 6.0000 z"/>
</clipPath>
<g clip-path="url(#clip9)">
<g fill-opacity=".24706" fill-rule="evenodd" stroke="none" fill="#000000">
  <path d="M 489.73 268.02 L 489.73 87.944 L 309.65 87.944 L 309.65 268.02 z"/>
<title>Quadrilatère q9</title>
<desc>Quadrilatère q9: Polygone I_1, J_1, K_1, L_1</desc>

</g> <!-- drawing style -->
</g> <!-- clip9 -->
</g> <!-- transform -->
<g transform="matrix(1.0000, 0.0000, 0.0000, 1.0000, -231.00, -6.0000)">
<clipPath id="clipc5dfabc5-3423-42ea-8ae0-0e142a9ffb79">
  <path d="M 231.00 6.0000 L 231.00 848.00 L 1090.0 848.00 L 1090.0 6.0000 z"/>
</clipPath>
<g clip-path="url(#clip10)">
<g stroke-linejoin="round" stroke-width="2.5000" stroke-linecap="round" fill="none" stroke-opacity=".69804" stroke="#000000">
  <path d="M 309.65 772.25 L 489.73 772.25"/>
<title>Segment a</title>
<desc>Segment a: Segment [AB]</desc>

</g> <!-- drawing style -->
</g> <!-- clip10 -->
</g> <!-- transform -->
<g transform="matrix(1.0000, 0.0000, 0.0000, 1.0000, -231.00, -6.0000)">
<clipPath id="clip110a1f68-029e-4993-8ee8-2dd34a393e8c">
  <path d="M 231.00 6.0000 L 231.00 848.00 L 1090.0 848.00 L 1090.0 6.0000 z"/>
</clipPath>
<g clip-path="url(#clip11)">
<g stroke-linejoin="round" stroke-width="2.5000" stroke-linecap="round" fill="none" stroke-opacity=".69804" stroke="#000000">
  <path d="M 489.73 772.25 L 489.73 592.17"/>
<title>Segment b</title>
<desc>Segment b: Segment [BC]</desc>

</g> <!-- drawing style -->
</g> <!-- clip11 -->
</g> <!-- transform -->
<g transform="matrix(1.0000, 0.0000, 0.0000, 1.0000, -231.00, -6.0000)">
<clipPath id="clip395c6787-9d3e-4791-a68a-c296abd3299a">
  <path d="M 231.00 6.0000 L 231.00 848.00 L 1090.0 848.00 L 1090.0 6.0000 z"/>
</clipPath>
<g clip-path="url(#clip12)">
<g stroke-linejoin="round" stroke-width="2.5000" stroke-linecap="round" fill="none" stroke-opacity=".69804" stroke="#000000">
  <path d="M 489.73 592.17 L 309.65 592.17"/>
<title>Segment c</title>
<desc>Segment c: Segment [CD]</desc>

</g> <!-- drawing style -->
</g> <!-- clip12 -->
</g> <!-- transform -->
<g transform="matrix(1.0000, 0.0000, 0.0000, 1.0000, -231.00, -6.0000)">
<clipPath id="clip062bf9cf-b21b-4f05-be77-b5b14a9307f1">
  <path d="M 231.00 6.0000 L 231.00 848.00 L 1090.0 848.00 L 1090.0 6.0000 z"/>
</clipPath>
<g clip-path="url(#clip13)">
<g stroke-linejoin="round" stroke-width="2.5000" stroke-linecap="round" fill="none" stroke-opacity=".69804" stroke="#000000">
  <path d="M 309.65 592.17 L 309.65 772.25"/>
<title>Segment d</title>
<desc>Segment d: Segment [DA]</desc>

</g> <!-- drawing style -->
</g> <!-- clip13 -->
</g> <!-- transform -->
<g transform="matrix(1.0000, 0.0000, 0.0000, 1.0000, -231.00, -6.0000)">
<clipPath id="clipeed5ab4b-df7a-46e1-87d6-0a6f4700616f">
  <path d="M 231.00 6.0000 L 231.00 848.00 L 1090.0 848.00 L 1090.0 6.0000 z"/>
</clipPath>
<g clip-path="url(#clip14)">
<g stroke-linejoin="round" stroke-width="2.5000" stroke-linecap="round" fill="none" stroke-opacity=".69804" stroke="#000000">
  <path d="M 561.76 772.25 L 741.84 772.25"/>
<title>Segment e</title>
<desc>Segment e: Segment [EF]</desc>

</g> <!-- drawing style -->
</g> <!-- clip14 -->
</g> <!-- transform -->
<g transform="matrix(1.0000, 0.0000, 0.0000, 1.0000, -231.00, -6.0000)">
<clipPath id="clip93324c3b-cd4e-485d-8ad6-993d6bed5e3d">
  <path d="M 231.00 6.0000 L 231.00 848.00 L 1090.0 848.00 L 1090.0 6.0000 z"/>
</clipPath>
<g clip-path="url(#clip15)">
<g stroke-linejoin="round" stroke-width="2.5000" stroke-linecap="round" fill="none" stroke-opacity=".69804" stroke="#000000">
  <path d="M 741.84 772.25 L 741.84 592.17"/>
<title>Segment f</title>
<desc>Segment f: Segment [FG]</desc>

</g> <!-- drawing style -->
</g> <!-- clip15 -->
</g> <!-- transform -->
<g transform="matrix(1.0000, 0.0000, 0.0000, 1.0000, -231.00, -6.0000)">
<clipPath id="clipc85ff8a8-cc39-4c2e-9ed4-7756f1d9081e">
  <path d="M 231.00 6.0000 L 231.00 848.00 L 1090.0 848.00 L 1090.0 6.0000 z"/>
</clipPath>
<g clip-path="url(#clip16)">
<g stroke-linejoin="round" stroke-width="2.5000" stroke-linecap="round" fill="none" stroke-opacity=".69804" stroke="#000000">
  <path d="M 741.84 592.17 L 561.76 592.17"/>
<title>Segment g</title>
<desc>Segment g: Segment [GH]</desc>

</g> <!-- drawing style -->
</g> <!-- clip16 -->
</g> <!-- transform -->
<g transform="matrix(1.0000, 0.0000, 0.0000, 1.0000, -231.00, -6.0000)">
<clipPath id="clip9a904f20-4eb5-434d-9340-edd389045b56">
  <path d="M 231.00 6.0000 L 231.00 848.00 L 1090.0 848.00 L 1090.0 6.0000 z"/>
</clipPath>
<g clip-path="url(#clip17)">
<g stroke-linejoin="round" stroke-width="2.5000" stroke-linecap="round" fill="none" stroke-opacity=".69804" stroke="#000000">
  <path d="M 561.76 592.17 L 561.76 772.25"/>
<title>Segment h</title>
<desc>Segment h: Segment [HE]</desc>

</g> <!-- drawing style -->
</g> <!-- clip17 -->
</g> <!-- transform -->
<g transform="matrix(1.0000, 0.0000, 0.0000, 1.0000, -231.00, -6.0000)">
<clipPath id="clip2fd7890e-eeb0-450d-bf2f-ac13b7158cae">
  <path d="M 231.00 6.0000 L 231.00 848.00 L 1090.0 848.00 L 1090.0 6.0000 z"/>
</clipPath>
<g clip-path="url(#clip18)">
<g stroke-linejoin="round" stroke-width="2.5000" stroke-linecap="round" fill="none" stroke-opacity=".69804" stroke="#000000">
  <path d="M 813.87 772.25 L 993.95 772.25"/>
<title>Segment i</title>
<desc>Segment i: Segment [IJ]</desc>

</g> <!-- drawing style -->
</g> <!-- clip18 -->
</g> <!-- transform -->
<g transform="matrix(1.0000, 0.0000, 0.0000, 1.0000, -231.00, -6.0000)">
<clipPath id="clip77da6e0c-319f-4866-b1fc-9647c134f06a">
  <path d="M 231.00 6.0000 L 231.00 848.00 L 1090.0 848.00 L 1090.0 6.0000 z"/>
</clipPath>
<g clip-path="url(#clip19)">
<g stroke-linejoin="round" stroke-width="2.5000" stroke-linecap="round" fill="none" stroke-opacity=".69804" stroke="#000000">
  <path d="M 993.95 772.25 L 993.95 592.17"/>
<title>Segment j</title>
<desc>Segment j: Segment [JK]</desc>

</g> <!-- drawing style -->
</g> <!-- clip19 -->
</g> <!-- transform -->
<g transform="matrix(1.0000, 0.0000, 0.0000, 1.0000, -231.00, -6.0000)">
<clipPath id="clip304c6bc1-51cc-4c9c-a175-0fae01978618">
  <path d="M 231.00 6.0000 L 231.00 848.00 L 1090.0 848.00 L 1090.0 6.0000 z"/>
</clipPath>
<g clip-path="url(#clip20)">
<g stroke-linejoin="round" stroke-width="2.5000" stroke-linecap="round" fill="none" stroke-opacity=".69804" stroke="#000000">
  <path d="M 993.95 592.17 L 813.87 592.17"/>
<title>Segment k</title>
<desc>Segment k: Segment [KL]</desc>

</g> <!-- drawing style -->
</g> <!-- clip20 -->
</g> <!-- transform -->
<g transform="matrix(1.0000, 0.0000, 0.0000, 1.0000, -231.00, -6.0000)">
<clipPath id="clip32bd47d9-578c-448d-9874-fd15eb6416f0">
  <path d="M 231.00 6.0000 L 231.00 848.00 L 1090.0 848.00 L 1090.0 6.0000 z"/>
</clipPath>
<g clip-path="url(#clip21)">
<g stroke-linejoin="round" stroke-width="2.5000" stroke-linecap="round" fill="none" stroke-opacity=".69804" stroke="#000000">
  <path d="M 813.87 592.17 L 813.87 772.25"/>
<title>Segment l</title>
<desc>Segment l: Segment [LI]</desc>

</g> <!-- drawing style -->
</g> <!-- clip21 -->
</g> <!-- transform -->
<g transform="matrix(1.0000, 0.0000, 0.0000, 1.0000, -231.00, -6.0000)">
<clipPath id="clip5f5ac9c4-eb75-4e7a-a540-5a4970a70a97">
  <path d="M 231.00 6.0000 L 231.00 848.00 L 1090.0 848.00 L 1090.0 6.0000 z"/>
</clipPath>
<g clip-path="url(#clip22)">
<g stroke-linejoin="round" stroke-width="2.5000" stroke-linecap="round" fill="none" stroke-opacity=".69804" stroke="#000000">
  <path d="M 309.65 520.14 L 309.65 340.06"/>
<title>Segment m</title>
<desc>Segment m: Segment [MN]</desc>

</g> <!-- drawing style -->
</g> <!-- clip22 -->
</g> <!-- transform -->
<g transform="matrix(1.0000, 0.0000, 0.0000, 1.0000, -231.00, -6.0000)">
<clipPath id="clip8a620bce-197a-40ac-a34d-130d2ab10549">
  <path d="M 231.00 6.0000 L 231.00 848.00 L 1090.0 848.00 L 1090.0 6.0000 z"/>
</clipPath>
<g clip-path="url(#clip23)">
<g stroke-linejoin="round" stroke-width="2.5000" stroke-linecap="round" fill="none" stroke-opacity=".69804" stroke="#000000">
  <path d="M 309.65 340.06 L 489.73 340.06"/>
<title>Segment n</title>
<desc>Segment n: Segment [NO]</desc>

</g> <!-- drawing style -->
</g> <!-- clip23 -->
</g> <!-- transform -->
<g transform="matrix(1.0000, 0.0000, 0.0000, 1.0000, -231.00, -6.0000)">
<clipPath id="clip4d75268f-9dd4-4809-86ff-f89773b5decb">
  <path d="M 231.00 6.0000 L 231.00 848.00 L 1090.0 848.00 L 1090.0 6.0000 z"/>
</clipPath>
<g clip-path="url(#clip24)">
<g stroke-linejoin="round" stroke-width="2.5000" stroke-linecap="round" fill="none" stroke-opacity=".69804" stroke="#000000">
  <path d="M 489.73 340.06 L 489.73 520.14"/>
<title>Segment o</title>
<desc>Segment o: Segment [OP]</desc>

</g> <!-- drawing style -->
</g> <!-- clip24 -->
</g> <!-- transform -->
<g transform="matrix(1.0000, 0.0000, 0.0000, 1.0000, -231.00, -6.0000)">
<clipPath id="clip5123f941-377b-4add-98e0-87407d55cef1">
  <path d="M 231.00 6.0000 L 231.00 848.00 L 1090.0 848.00 L 1090.0 6.0000 z"/>
</clipPath>
<g clip-path="url(#clip25)">
<g stroke-linejoin="round" stroke-width="2.5000" stroke-linecap="round" fill="none" stroke-opacity=".69804" stroke="#000000">
  <path d="M 489.73 520.14 L 309.65 520.14"/>
<title>Segment p</title>
<desc>Segment p: Segment [PM]</desc>

</g> <!-- drawing style -->
</g> <!-- clip25 -->
</g> <!-- transform -->
<g transform="matrix(1.0000, 0.0000, 0.0000, 1.0000, -231.00, -6.0000)">
<clipPath id="clip9a5cea93-b62e-4985-89b4-2ed62c775314">
  <path d="M 231.00 6.0000 L 231.00 848.00 L 1090.0 848.00 L 1090.0 6.0000 z"/>
</clipPath>
<g clip-path="url(#clip26)">
<g stroke-linejoin="round" stroke-width="2.5000" stroke-linecap="round" fill="none" stroke-opacity=".69804" stroke="#000000">
  <path d="M 561.76 520.14 L 741.84 520.14"/>
<title>Segment q</title>
<desc>Segment q: Segment [QR]</desc>

</g> <!-- drawing style -->
</g> <!-- clip26 -->
</g> <!-- transform -->
<g transform="matrix(1.0000, 0.0000, 0.0000, 1.0000, -231.00, -6.0000)">
<clipPath id="clip3a609098-c6de-4867-93de-92647f30cd01">
  <path d="M 231.00 6.0000 L 231.00 848.00 L 1090.0 848.00 L 1090.0 6.0000 z"/>
</clipPath>
<g clip-path="url(#clip27)">
<g stroke-linejoin="round" stroke-width="2.5000" stroke-linecap="round" fill="none" stroke-opacity=".69804" stroke="#000000">
  <path d="M 741.84 520.14 L 741.84 340.06"/>
<title>Segment r</title>
<desc>Segment r: Segment [RS]</desc>

</g> <!-- drawing style -->
</g> <!-- clip27 -->
</g> <!-- transform -->
<g transform="matrix(1.0000, 0.0000, 0.0000, 1.0000, -231.00, -6.0000)">
<clipPath id="clip10f10df6-582b-4c90-9d1a-d09ef5c22a34">
  <path d="M 231.00 6.0000 L 231.00 848.00 L 1090.0 848.00 L 1090.0 6.0000 z"/>
</clipPath>
<g clip-path="url(#clip28)">
<g stroke-linejoin="round" stroke-width="2.5000" stroke-linecap="round" fill="none" stroke-opacity=".69804" stroke="#000000">
  <path d="M 741.84 340.06 L 561.76 340.06"/>
<title>Segment s</title>
<desc>Segment s: Segment [ST]</desc>

</g> <!-- drawing style -->
</g> <!-- clip28 -->
</g> <!-- transform -->
<g transform="matrix(1.0000, 0.0000, 0.0000, 1.0000, -231.00, -6.0000)">
<clipPath id="clipccaefd7e-3029-45c5-a2fe-9530f6c421b1">
  <path d="M 231.00 6.0000 L 231.00 848.00 L 1090.0 848.00 L 1090.0 6.0000 z"/>
</clipPath>
<g clip-path="url(#clip29)">
<g stroke-linejoin="round" stroke-width="2.5000" stroke-linecap="round" fill="none" stroke-opacity=".69804" stroke="#000000">
  <path d="M 561.76 340.06 L 561.76 520.14"/>
<title>Segment t</title>
<desc>Segment t: Segment [TQ]</desc>

</g> <!-- drawing style -->
</g> <!-- clip29 -->
</g> <!-- transform -->
<g transform="matrix(1.0000, 0.0000, 0.0000, 1.0000, -231.00, -6.0000)">
<clipPath id="clipb1c520d1-5f53-4335-b7fe-4abf3a237324">
  <path d="M 231.00 6.0000 L 231.00 848.00 L 1090.0 848.00 L 1090.0 6.0000 z"/>
</clipPath>
<g clip-path="url(#clip30)">
<g stroke-linejoin="round" stroke-width="2.5000" stroke-linecap="round" fill="none" stroke-opacity=".69804" stroke="#000000">
  <path d="M 813.87 340.06 L 993.95 340.06"/>
<title>Segment u</title>
<desc>Segment u: Segment [UV]</desc>

</g> <!-- drawing style -->
</g> <!-- clip30 -->
</g> <!-- transform -->
<g transform="matrix(1.0000, 0.0000, 0.0000, 1.0000, -231.00, -6.0000)">
<clipPath id="clipf1794b20-c614-49d7-8737-27f75d4047a3">
  <path d="M 231.00 6.0000 L 231.00 848.00 L 1090.0 848.00 L 1090.0 6.0000 z"/>
</clipPath>
<g clip-path="url(#clip31)">
<g stroke-linejoin="round" stroke-width="2.5000" stroke-linecap="round" fill="none" stroke-opacity=".69804" stroke="#000000">
  <path d="M 993.95 340.06 L 993.95 520.14"/>
<title>Segment v</title>
<desc>Segment v: Segment [VW]</desc>

</g> <!-- drawing style -->
</g> <!-- clip31 -->
</g> <!-- transform -->
<g transform="matrix(1.0000, 0.0000, 0.0000, 1.0000, -231.00, -6.0000)">
<clipPath id="clip8ff17833-3b5e-42fe-9116-b04e51080749">
  <path d="M 231.00 6.0000 L 231.00 848.00 L 1090.0 848.00 L 1090.0 6.0000 z"/>
</clipPath>
<g clip-path="url(#clip32)">
<g stroke-linejoin="round" stroke-width="2.5000" stroke-linecap="round" fill="none" stroke-opacity=".69804" stroke="#000000">
  <path d="M 993.95 520.14 L 813.87 520.14"/>
<title>Segment w</title>
<desc>Segment w: Segment [WZ]</desc>

</g> <!-- drawing style -->
</g> <!-- clip32 -->
</g> <!-- transform -->
<g transform="matrix(1.0000, 0.0000, 0.0000, 1.0000, -231.00, -6.0000)">
<clipPath id="clip8587d87c-1830-413b-a1db-130ee7de8fa9">
  <path d="M 231.00 6.0000 L 231.00 848.00 L 1090.0 848.00 L 1090.0 6.0000 z"/>
</clipPath>
<g clip-path="url(#clip33)">
<g stroke-linejoin="round" stroke-width="2.5000" stroke-linecap="round" fill="none" stroke-opacity=".69804" stroke="#000000">
  <path d="M 813.87 520.14 L 813.87 340.06"/>
<title>Segment z_1</title>
<desc>Segment z_1: Segment [ZU]</desc>

</g> <!-- drawing style -->
</g> <!-- clip33 -->
</g> <!-- transform -->
<g transform="matrix(1.0000, 0.0000, 0.0000, 1.0000, -231.00, -6.0000)">
<clipPath id="clipcc5064c8-4a2c-4458-a353-ee0e5f408db9">
  <path d="M 231.00 6.0000 L 231.00 848.00 L 1090.0 848.00 L 1090.0 6.0000 z"/>
</clipPath>
<g clip-path="url(#clip34)">
<g stroke-linejoin="round" stroke-width="2.5000" stroke-linecap="round" fill="none" stroke-opacity=".69804" stroke="#000000">
  <path d="M 993.95 268.02 L 813.87 268.02"/>
<title>Segment a_1</title>
<desc>Segment a_1: Segment [A_1B_1]</desc>

</g> <!-- drawing style -->
</g> <!-- clip34 -->
</g> <!-- transform -->
<g transform="matrix(1.0000, 0.0000, 0.0000, 1.0000, -231.00, -6.0000)">
<clipPath id="clipf38d543f-89a8-4537-afa0-f4d0c81f4a05">
  <path d="M 231.00 6.0000 L 231.00 848.00 L 1090.0 848.00 L 1090.0 6.0000 z"/>
</clipPath>
<g clip-path="url(#clip35)">
<g stroke-linejoin="round" stroke-width="2.5000" stroke-linecap="round" fill="none" stroke-opacity=".69804" stroke="#000000">
  <path d="M 813.87 268.02 L 813.87 87.944"/>
<title>Segment b_1</title>
<desc>Segment b_1: Segment [B_1C_1]</desc>

</g> <!-- drawing style -->
</g> <!-- clip35 -->
</g> <!-- transform -->
<g transform="matrix(1.0000, 0.0000, 0.0000, 1.0000, -231.00, -6.0000)">
<clipPath id="clip72c019bd-bce4-4de2-afdf-c4dc76ef4bc8">
  <path d="M 231.00 6.0000 L 231.00 848.00 L 1090.0 848.00 L 1090.0 6.0000 z"/>
</clipPath>
<g clip-path="url(#clip36)">
<g stroke-linejoin="round" stroke-width="2.5000" stroke-linecap="round" fill="none" stroke-opacity=".69804" stroke="#000000">
  <path d="M 813.87 87.944 L 993.95 87.944"/>
<title>Segment c_1</title>
<desc>Segment c_1: Segment [C_1D_1]</desc>

</g> <!-- drawing style -->
</g> <!-- clip36 -->
</g> <!-- transform -->
<g transform="matrix(1.0000, 0.0000, 0.0000, 1.0000, -231.00, -6.0000)">
<clipPath id="clip1c3b5190-8b73-4d6f-86a9-f727a0bc8101">
  <path d="M 231.00 6.0000 L 231.00 848.00 L 1090.0 848.00 L 1090.0 6.0000 z"/>
</clipPath>
<g clip-path="url(#clip37)">
<g stroke-linejoin="round" stroke-width="2.5000" stroke-linecap="round" fill="none" stroke-opacity=".69804" stroke="#000000">
  <path d="M 993.95 87.944 L 993.95 268.02"/>
<title>Segment d_1</title>
<desc>Segment d_1: Segment [D_1A_1]</desc>

</g> <!-- drawing style -->
</g> <!-- clip37 -->
</g> <!-- transform -->
<g transform="matrix(1.0000, 0.0000, 0.0000, 1.0000, -231.00, -6.0000)">
<clipPath id="clip81f45d06-9600-4773-982d-fb89eda3522d">
  <path d="M 231.00 6.0000 L 231.00 848.00 L 1090.0 848.00 L 1090.0 6.0000 z"/>
</clipPath>
<g clip-path="url(#clip38)">
<g stroke-linejoin="round" stroke-width="2.5000" stroke-linecap="round" fill="none" stroke-opacity=".69804" stroke="#000000">
  <path d="M 741.84 268.02 L 741.84 87.944"/>
<title>Segment e_1</title>
<desc>Segment e_1: Segment [E_1F_1]</desc>

</g> <!-- drawing style -->
</g> <!-- clip38 -->
</g> <!-- transform -->
<g transform="matrix(1.0000, 0.0000, 0.0000, 1.0000, -231.00, -6.0000)">
<clipPath id="clipe3abc4ce-769b-43da-a116-07d8ec952327">
  <path d="M 231.00 6.0000 L 231.00 848.00 L 1090.0 848.00 L 1090.0 6.0000 z"/>
</clipPath>
<g clip-path="url(#clip39)">
<g stroke-linejoin="round" stroke-width="2.5000" stroke-linecap="round" fill="none" stroke-opacity=".69804" stroke="#000000">
  <path d="M 741.84 87.944 L 561.76 87.944"/>
<title>Segment f_1</title>
<desc>Segment f_1: Segment [F_1G_1]</desc>

</g> <!-- drawing style -->
</g> <!-- clip39 -->
</g> <!-- transform -->
<g transform="matrix(1.0000, 0.0000, 0.0000, 1.0000, -231.00, -6.0000)">
<clipPath id="clipf43b4a7a-6f49-4dcb-a062-5706572caedc">
  <path d="M 231.00 6.0000 L 231.00 848.00 L 1090.0 848.00 L 1090.0 6.0000 z"/>
</clipPath>
<g clip-path="url(#clip40)">
<g stroke-linejoin="round" stroke-width="2.5000" stroke-linecap="round" fill="none" stroke-opacity=".69804" stroke="#000000">
  <path d="M 561.76 87.944 L 561.76 268.02"/>
<title>Segment g_1</title>
<desc>Segment g_1: Segment [G_1H_1]</desc>

</g> <!-- drawing style -->
</g> <!-- clip40 -->
</g> <!-- transform -->
<g transform="matrix(1.0000, 0.0000, 0.0000, 1.0000, -231.00, -6.0000)">
<clipPath id="clip1d35ae10-1abd-4fc0-80a6-6bf4996d1504">
  <path d="M 231.00 6.0000 L 231.00 848.00 L 1090.0 848.00 L 1090.0 6.0000 z"/>
</clipPath>
<g clip-path="url(#clip41)">
<g stroke-linejoin="round" stroke-width="2.5000" stroke-linecap="round" fill="none" stroke-opacity=".69804" stroke="#000000">
  <path d="M 561.76 268.02 L 741.84 268.02"/>
<title>Segment h_1</title>
<desc>Segment h_1: Segment [H_1E_1]</desc>

</g> <!-- drawing style -->
</g> <!-- clip41 -->
</g> <!-- transform -->
<g transform="matrix(1.0000, 0.0000, 0.0000, 1.0000, -231.00, -6.0000)">
<clipPath id="clipafec15e9-79c4-40b6-9be4-8e28e1bc987a">
  <path d="M 231.00 6.0000 L 231.00 848.00 L 1090.0 848.00 L 1090.0 6.0000 z"/>
</clipPath>
<g clip-path="url(#clip42)">
<g stroke-linejoin="round" stroke-width="2.5000" stroke-linecap="round" fill="none" stroke-opacity=".69804" stroke="#000000">
  <path d="M 489.73 268.02 L 489.73 87.944"/>
<title>Segment i_1</title>
<desc>Segment i_1: Segment [I_1J_1]</desc>

</g> <!-- drawing style -->
</g> <!-- clip42 -->
</g> <!-- transform -->
<g transform="matrix(1.0000, 0.0000, 0.0000, 1.0000, -231.00, -6.0000)">
<clipPath id="clipf3a7eda2-f6c4-488f-9ba1-f379538a7f72">
  <path d="M 231.00 6.0000 L 231.00 848.00 L 1090.0 848.00 L 1090.0 6.0000 z"/>
</clipPath>
<g clip-path="url(#clip43)">
<g stroke-linejoin="round" stroke-width="2.5000" stroke-linecap="round" fill="none" stroke-opacity=".69804" stroke="#000000">
  <path d="M 489.73 87.944 L 309.65 87.944"/>
<title>Segment j_1</title>
<desc>Segment j_1: Segment [J_1K_1]</desc>

</g> <!-- drawing style -->
</g> <!-- clip43 -->
</g> <!-- transform -->
<g transform="matrix(1.0000, 0.0000, 0.0000, 1.0000, -231.00, -6.0000)">
<clipPath id="clipaf84b3d5-b600-4b55-b1a9-293f18274ccc">
  <path d="M 231.00 6.0000 L 231.00 848.00 L 1090.0 848.00 L 1090.0 6.0000 z"/>
</clipPath>
<g clip-path="url(#clip44)">
<g stroke-linejoin="round" stroke-width="2.5000" stroke-linecap="round" fill="none" stroke-opacity=".69804" stroke="#000000">
  <path d="M 309.65 87.944 L 309.65 268.02"/>
<title>Segment k_1</title>
<desc>Segment k_1: Segment [K_1L_1]</desc>

</g> <!-- drawing style -->
</g> <!-- clip44 -->
</g> <!-- transform -->
<g transform="matrix(1.0000, 0.0000, 0.0000, 1.0000, -231.00, -6.0000)">
<clipPath id="clipa42c2bf8-f409-4c87-a209-42f6d0e7790b">
  <path d="M 231.00 6.0000 L 231.00 848.00 L 1090.0 848.00 L 1090.0 6.0000 z"/>
</clipPath>
<g clip-path="url(#clip45)">
<g stroke-linejoin="round" stroke-width="2.5000" stroke-linecap="round" fill="none" stroke-opacity=".69804" stroke="#000000">
  <path d="M 309.65 268.02 L 489.73 268.02"/>
<title>Segment l_1</title>
<desc>Segment l_1: Segment [L_1I_1]</desc>

</g> <!-- drawing style -->
</g> <!-- clip45 -->
</g> <!-- transform -->
<g transform="matrix(1.0000, 0.0000, 0.0000, 1.0000, -231.00, -6.0000)">
<clipPath id="clipcd8e0f01-d80d-4715-96e1-6b418e509d1a">
  <path d="M 231.00 6.0000 L 231.00 848.00 L 1090.0 848.00 L 1090.0 6.0000 z"/>
</clipPath>
<g clip-path="url(#clip46)">
<g stroke-linejoin="round" stroke-dasharray="10.500,8.0000" stroke-width="2.5000" stroke-linecap="butt" fill="none" stroke-opacity=".69804" stroke="#000000">
  <path d="M 273.63 51.928 L 273.63 808.27"/>
<title>Segment m_1</title>
<desc>Segment m_1: Segment [M_1N_1]</desc>

</g> <!-- drawing style -->
</g> <!-- clip46 -->
</g> <!-- transform -->
<g transform="matrix(1.0000, 0.0000, 0.0000, 1.0000, -231.00, -6.0000)">
<clipPath id="clip8861e35e-1576-4f1a-a66b-e8e86bf65c7e">
  <path d="M 231.00 6.0000 L 231.00 848.00 L 1090.0 848.00 L 1090.0 6.0000 z"/>
</clipPath>
<g clip-path="url(#clip47)">
<g stroke-linejoin="round" stroke-dasharray="10.500,8.0000" stroke-width="2.5000" stroke-linecap="butt" fill="none" stroke-opacity=".69804" stroke="#000000">
  <path d="M 273.63 808.27 L 1030.0 808.27"/>
<title>Segment n_1</title>
<desc>Segment n_1: Segment [N_1O_1]</desc>

</g> <!-- drawing style -->
</g> <!-- clip47 -->
</g> <!-- transform -->
<g transform="matrix(1.0000, 0.0000, 0.0000, 1.0000, -231.00, -6.0000)">
<clipPath id="clip3cb18206-e97a-4dd4-bf86-ef5fb65612dc">
  <path d="M 231.00 6.0000 L 231.00 848.00 L 1090.0 848.00 L 1090.0 6.0000 z"/>
</clipPath>
<g clip-path="url(#clip48)">
<g stroke-linejoin="round" stroke-dasharray="10.500,8.0000" stroke-width="2.5000" stroke-linecap="butt" fill="none" stroke-opacity=".69804" stroke="#000000">
  <path d="M 1030.0 808.27 L 1030.0 51.928"/>
<title>Segment p_1</title>
<desc>Segment p_1: Segment [O_1P_1]</desc>

</g> <!-- drawing style -->
</g> <!-- clip48 -->
</g> <!-- transform -->
<g transform="matrix(1.0000, 0.0000, 0.0000, 1.0000, -231.00, -6.0000)">
<clipPath id="clip8e22eb7d-7311-42cc-9a32-5a14187c6242">
  <path d="M 231.00 6.0000 L 231.00 848.00 L 1090.0 848.00 L 1090.0 6.0000 z"/>
</clipPath>
<g clip-path="url(#clip49)">
<g stroke-linejoin="round" stroke-dasharray="10.500,8.0000" stroke-width="2.5000" stroke-linecap="butt" fill="none" stroke-opacity=".69804" stroke="#000000">
  <path d="M 1030.0 51.928 L 273.63 51.928"/>
<title>Segment q_1</title>
<desc>Segment q_1: Segment [P_1M_1]</desc>

</g> <!-- drawing style -->
</g> <!-- clip49 -->
</g> <!-- transform -->
<g transform="matrix(1.0000, 0.0000, 0.0000, 1.0000, -231.00, -6.0000)">
<clipPath id="clipf22345d4-ca8c-4791-b02f-e23fbafa9ae2">
  <path d="M 231.00 6.0000 L 231.00 848.00 L 1090.0 848.00 L 1090.0 6.0000 z"/>
</clipPath>
<g clip-path="url(#clip50)">
<g stroke-linejoin="round" stroke-dasharray="10.500,8.0000" stroke-width="2.5000" stroke-linecap="butt" fill="none" stroke-opacity=".69804" stroke="#000000">
  <path d="M 525.74 51.928 L 525.74 808.27"/>
<title>Segment r_1</title>
<desc>Segment r_1: Segment [Q_1R_1]</desc>

</g> <!-- drawing style -->
</g> <!-- clip50 -->
</g> <!-- transform -->
<g transform="matrix(1.0000, 0.0000, 0.0000, 1.0000, -231.00, -6.0000)">
<clipPath id="clipa7b21f60-37e7-4e30-9073-c4bac88ecac6">
  <path d="M 231.00 6.0000 L 231.00 848.00 L 1090.0 848.00 L 1090.0 6.0000 z"/>
</clipPath>
<g clip-path="url(#clip51)">
<g stroke-linejoin="round" stroke-dasharray="10.500,8.0000" stroke-width="2.5000" stroke-linecap="butt" fill="none" stroke-opacity=".69804" stroke="#000000">
  <path d="M 777.86 808.27 L 777.86 51.928"/>
<title>Segment s_1</title>
<desc>Segment s_1: Segment [S_1T_1]</desc>

</g> <!-- drawing style -->
</g> <!-- clip51 -->
</g> <!-- transform -->
<g transform="matrix(1.0000, 0.0000, 0.0000, 1.0000, -231.00, -6.0000)">
<clipPath id="clip196ba5a1-c534-4484-9832-d855f3dc9a91">
  <path d="M 231.00 6.0000 L 231.00 848.00 L 1090.0 848.00 L 1090.0 6.0000 z"/>
</clipPath>
<g clip-path="url(#clip52)">
<g stroke-linejoin="round" stroke-dasharray="10.500,8.0000" stroke-width="2.5000" stroke-linecap="butt" fill="none" stroke-opacity=".69804" stroke="#000000">
  <path d="M 273.63 304.04 L 1030.0 304.04"/>
<title>Segment t_1</title>
<desc>Segment t_1: Segment [U_1V_1]</desc>

</g> <!-- drawing style -->
</g> <!-- clip52 -->
</g> <!-- transform -->
<g transform="matrix(1.0000, 0.0000, 0.0000, 1.0000, -231.00, -6.0000)">
<clipPath id="clip7f46c5b9-7742-4949-b7af-481ad7ffb4d3">
  <path d="M 231.00 6.0000 L 231.00 848.00 L 1090.0 848.00 L 1090.0 6.0000 z"/>
</clipPath>
<g clip-path="url(#clip53)">
<g stroke-linejoin="round" stroke-dasharray="10.500,8.0000" stroke-width="2.5000" stroke-linecap="butt" fill="none" stroke-opacity=".69804" stroke="#000000">
  <path d="M 1030.0 556.15 L 273.63 556.15"/>
<title>Segment f_2</title>
<desc>Segment f_2: Segment [W_1Z_1]</desc>

</g> <!-- drawing style -->
</g> <!-- clip53 -->
</g> <!-- transform -->
<g transform="matrix(1.0000, 0.0000, 0.0000, 1.0000, -231.00, -6.0000)">
<clipPath id="clipd44c4b16-442b-45ef-804b-df18ce91907b">
  <path d="M 231.00 6.0000 L 231.00 848.00 L 1090.0 848.00 L 1090.0 6.0000 z"/>
</clipPath>
<g clip-path="url(#clip54)">
<g stroke-width="2.0000" fill="none" stroke-opacity="1.0000" stroke="#000000">
  <path d="M 269.63 804.27 L 277.63 812.27"/>
<title>Point N_1</title>
<desc>Point N_1: Intersection de axeX et axeY</desc>

</g> <!-- drawing style -->
</g> <!-- clip54 -->
</g> <!-- transform -->
<g transform="matrix(1.0000, 0.0000, 0.0000, 1.0000, -231.00, -6.0000)">
<clipPath id="clipe241f67f-dfe5-4daf-8713-cad0d4e7bd76">
  <path d="M 231.00 6.0000 L 231.00 848.00 L 1090.0 848.00 L 1090.0 6.0000 z"/>
</clipPath>
<g clip-path="url(#clip55)">
<g stroke-width="2.0000" fill="none" stroke-opacity="1.0000" stroke="#000000">
  <path d="M 269.63 812.27 L 277.63 804.27"/>
<title>Point N_1</title>
<desc>Point N_1: Intersection de axeX et axeY</desc>

</g> <!-- drawing style -->
</g> <!-- clip55 -->
</g> <!-- transform -->
<g transform="matrix(1.0000, 0.0000, 0.0000, 1.0000, -231.00, -6.0000)">
<clipPath id="clip468f5684-d6f0-42aa-9e96-dc7263dcf626">
  <path d="M 231.00 6.0000 L 231.00 848.00 L 1090.0 848.00 L 1090.0 6.0000 z"/>
</clipPath>
<g clip-path="url(#clip56)">
<g stroke-width="2.5000" fill="none" stroke-opacity="1.0000" stroke="#000000">
  <path d="M 1025.0 46.928 L 1035.0 56.928"/>
<title>Point P_1</title>
<desc>P_1 = (10.5, 10.5)</desc>

</g> <!-- drawing style -->
</g> <!-- clip56 -->
</g> <!-- transform -->
<g transform="matrix(1.0000, 0.0000, 0.0000, 1.0000, -231.00, -6.0000)">
<clipPath id="clip3070a849-e508-4a24-b928-9a186c445673">
  <path d="M 231.00 6.0000 L 231.00 848.00 L 1090.0 848.00 L 1090.0 6.0000 z"/>
</clipPath>
<g clip-path="url(#clip57)">
<g stroke-width="2.5000" fill="none" stroke-opacity="1.0000" stroke="#000000">
  <path d="M 1025.0 56.928 L 1035.0 46.928"/>
<title>Point P_1</title>
<desc>P_1 = (10.5, 10.5)</desc>

</g> <!-- drawing style -->
</g> <!-- clip57 -->
</g> <!-- transform -->
<g transform="matrix(1.0000, 0.0000, 0.0000, 1.0000, -231.00, -6.0000)">
<clipPath id="clip50a3fbfe-cd51-4472-9c49-1b02bc17416c">
  <path d="M 231.00 6.0000 L 231.00 848.00 L 1090.0 848.00 L 1090.0 6.0000 z"/>
</clipPath>
<g clip-path="url(#clip58)">
<g stroke-width="2.5000" fill="none" stroke-opacity="1.0000" stroke="#000000">
  <path d="M 772.86 803.27 L 782.86 813.27"/>
<title>Point S_1</title>
<desc>Point S_1: Point sur n_1</desc>

</g> <!-- drawing style -->
</g> <!-- clip58 -->
</g> <!-- transform -->
<g transform="matrix(1.0000, 0.0000, 0.0000, 1.0000, -231.00, -6.0000)">
<clipPath id="clip44ac3dce-bac2-4889-ba71-f6e0671c9d69">
  <path d="M 231.00 6.0000 L 231.00 848.00 L 1090.0 848.00 L 1090.0 6.0000 z"/>
</clipPath>
<g clip-path="url(#clip59)">
<g stroke-width="2.5000" fill="none" stroke-opacity="1.0000" stroke="#000000">
  <path d="M 772.86 813.27 L 782.86 803.27"/>
<title>Point S_1</title>
<desc>Point S_1: Point sur n_1</desc>

</g> <!-- drawing style -->
</g> <!-- clip59 -->
</g> <!-- transform -->
<g transform="matrix(1.0000, 0.0000, 0.0000, 1.0000, -231.00, -6.0000)">
<clipPath id="clipb40b6623-e5e3-4d50-9cb5-b4c525c645c5">
  <path d="M 231.00 6.0000 L 231.00 848.00 L 1090.0 848.00 L 1090.0 6.0000 z"/>
</clipPath>
<g clip-path="url(#clip60)">
<g stroke-width="2.5000" fill="none" stroke-opacity="1.0000" stroke="#000000">
  <path d="M 772.86 46.928 L 782.86 56.928"/>
<title>Point T_1</title>
<desc>Point T_1: Point sur q_1</desc>

</g> <!-- drawing style -->
</g> <!-- clip60 -->
</g> <!-- transform -->
<g transform="matrix(1.0000, 0.0000, 0.0000, 1.0000, -231.00, -6.0000)">
<clipPath id="clip2300ffce-1d9b-4cfb-9fc7-cc095372b0e6">
  <path d="M 231.00 6.0000 L 231.00 848.00 L 1090.0 848.00 L 1090.0 6.0000 z"/>
</clipPath>
<g clip-path="url(#clip61)">
<g stroke-width="2.5000" fill="none" stroke-opacity="1.0000" stroke="#000000">
  <path d="M 772.86 56.928 L 782.86 46.928"/>
<title>Point T_1</title>
<desc>Point T_1: Point sur q_1</desc>

</g> <!-- drawing style -->
</g> <!-- clip61 -->
</g> <!-- transform -->
<g transform="matrix(1.0000, 0.0000, 0.0000, 1.0000, -231.00, -6.0000)">
<clipPath id="clip1ba93d0d-71c2-4122-9b46-665827446ddc">
  <path d="M 231.00 6.0000 L 231.00 848.00 L 1090.0 848.00 L 1090.0 6.0000 z"/>
</clipPath>
<g clip-path="url(#clip62)">
<g stroke-width="2.5000" fill="none" stroke-opacity="1.0000" stroke="#000000">
  <path d="M 268.63 551.15 L 278.63 561.15"/>
<title>Point Z_1</title>
<desc>Point Z_1: Point sur m_1</desc>

</g> <!-- drawing style -->
</g> <!-- clip62 -->
</g> <!-- transform -->
<g transform="matrix(1.0000, 0.0000, 0.0000, 1.0000, -231.00, -6.0000)">
<clipPath id="clip98b2b2b2-4416-4b46-9618-d091870a192b">
  <path d="M 231.00 6.0000 L 231.00 848.00 L 1090.0 848.00 L 1090.0 6.0000 z"/>
</clipPath>
<g clip-path="url(#clip63)">
<g stroke-width="2.5000" fill="none" stroke-opacity="1.0000" stroke="#000000">
  <path d="M 268.63 561.15 L 278.63 551.15"/>
<title>Point Z_1</title>
<desc>Point Z_1: Point sur m_1</desc>

</g> <!-- drawing style -->
</g> <!-- clip63 -->
</g> <!-- transform -->
<g transform="matrix(.25000, 0.0000, 0.0000, .25000, 15.000, 828.75)">
<clipPath id="clip9a823248-298e-4f17-8714-a500be9f0035">
  <path d="M -60.000 -3315.0 L -60.000 53.000 L 3376.0 53.000 L 3376.0 -3315.0 z"/>
</clipPath>
<g clip-path="url(#clip64)">
<g fill-opacity="1.0000" fill-rule="nonzero" stroke="none" fill="#000000">
  <path d="M 33.094 24.000 L 33.094 24.000 Q 33.094 25.000 32.094 25.000 Q 30.906 25.000 26.797 20.906 Q 20.594 14.703 16.500 6.2031 Q 9.9062 -7.4062 9.9062 -25.000 Q 9.9062 -41.906 16.203 -55.500 Q 21.406 -66.594 29.406 -73.297 Q 31.500 -75.000 32.094 -75.000 Q 33.094 -75.000 33.094 -74.000 Q 33.094 -73.500 31.797 -72.297 Q 15.703 -55.906 15.703 -25.000 Q 15.703 5.7969 31.406 21.797 Q 33.094 23.500 33.094 24.000 z"/>
<title>(0\,;0)</title>
<desc>texte1 = “(0\,;0)”</desc>

</g> <!-- drawing style -->
</g> <!-- clip64 -->
</g> <!-- transform -->
<g transform="matrix(.25000, 0.0000, 0.0000, .25000, 24.725, 828.75)">
<clipPath id="clip4bc3d350-fd0b-4028-b32c-f9cc55600d4a">
  <path d="M -98.900 -3315.0 L -98.900 53.000 L 3337.1 53.000 L 3337.1 -3315.0 z"/>
</clipPath>
<g clip-path="url(#clip65)">
<g fill-opacity="1.0000" fill-rule="nonzero" stroke="none" fill="#000000">
  <path d="M 46.000 -32.000 Q 46.000 -17.406 42.297 -9.4062 Q 36.406 1.7969 24.906 2.2031 Q 15.797 2.2031 10.297 -5.0000 Q 9.2031 -6.2969 8.4062 -7.9062 Q 3.9062 -16.203 3.9062 -32.000 Q 3.9062 -46.703 7.5938 -54.703 Q 12.594 -65.906 23.797 -66.594 L 25.000 -66.594 Q 33.906 -66.594 39.500 -59.500 L 39.500 -59.406 Q 40.906 -57.594 42.000 -55.406 Q 46.000 -46.906 46.000 -32.000 z M 24.906 -0.0000 L 24.906 -0.0000 Q 31.203 -0.0000 34.594 -6.0938 Q 36.000 -8.7969 36.594 -12.500 Q 37.703 -18.906 37.703 -33.203 Q 37.703 -47.094 36.703 -52.703 Q 34.906 -62.203 27.500 -64.094 Q 26.203 -64.406 24.906 -64.406 Q 17.906 -64.406 14.703 -57.406 Q 13.594 -55.000 13.000 -51.594 Q 12.203 -46.203 12.203 -33.203 Q 12.203 -18.094 13.297 -12.094 Q 15.094 -2.5000 22.094 -.40625 Q 23.500 -0.0000 24.906 -0.0000 z"/>
<title>(0\,;0)</title>
<desc>texte1 = “(0\,;0)”</desc>

</g> <!-- drawing style -->
</g> <!-- clip65 -->
</g> <!-- transform -->
<g transform="matrix(.25000, 0.0000, 0.0000, .25000, 41.392, 828.75)">
<clipPath id="clip1ddb65ce-1a6c-43b7-90b0-a680f2d17d4b">
  <path d="M -165.57 -3315.0 L -165.57 53.000 L 3270.4 53.000 L 3270.4 -3315.0 z"/>
</clipPath>
<g clip-path="url(#clip66)">
<g fill-opacity="1.0000" fill-rule="nonzero" stroke="none" fill="#000000">
  <path d="M 19.203 -37.797 Q 19.203 -34.500 16.203 -33.000 Q 15.094 -32.500 13.906 -32.500 Q 10.594 -32.500 9.0938 -35.500 Q 8.5938 -36.594 8.5938 -37.797 Q 8.5938 -41.094 11.594 -42.594 Q 12.703 -43.094 13.906 -43.094 Q 17.203 -43.094 18.703 -40.094 Q 19.203 -39.000 19.203 -37.797 z M 17.297 -1.0938 L 17.297 -1.0938 Q 16.406 -.29688 14.703 -.093750 Q 14.594 -0.0000 13.906 -0.0000 Q 9.9062 -0.0000 8.7969 -3.7031 Q 8.5938 -4.5000 8.5938 -5.2969 Q 8.5938 -8.7969 11.594 -10.203 Q 12.703 -10.594 13.906 -10.594 Q 19.500 -10.594 19.500 -.29688 Q 19.500 9.5000 13.703 17.000 Q 11.906 19.297 11.203 19.297 Q 10.203 19.297 10.203 18.203 Q 10.203 17.703 10.906 16.906 Q 17.297 9.5000 17.297 -1.0938 z"/>
<title>(0\,;0)</title>
<desc>texte1 = “(0\,;0)”</desc>

</g> <!-- drawing style -->
</g> <!-- clip66 -->
</g> <!-- transform -->
<g transform="matrix(.25000, 0.0000, 0.0000, .25000, 52.508, 828.75)">
<clipPath id="clipd4a632a0-fd40-4b55-9cc9-734bc60dc119">
  <path d="M -210.03 -3315.0 L -210.03 53.000 L 3226.0 53.000 L 3226.0 -3315.0 z"/>
</clipPath>
<g clip-path="url(#clip67)">
<g fill-opacity="1.0000" fill-rule="nonzero" stroke="none" fill="#000000">
  <path d="M 46.000 -32.000 Q 46.000 -17.406 42.297 -9.4062 Q 36.406 1.7969 24.906 2.2031 Q 15.797 2.2031 10.297 -5.0000 Q 9.2031 -6.2969 8.4062 -7.9062 Q 3.9062 -16.203 3.9062 -32.000 Q 3.9062 -46.703 7.5938 -54.703 Q 12.594 -65.906 23.797 -66.594 L 25.000 -66.594 Q 33.906 -66.594 39.500 -59.500 L 39.500 -59.406 Q 40.906 -57.594 42.000 -55.406 Q 46.000 -46.906 46.000 -32.000 z M 24.906 -0.0000 L 24.906 -0.0000 Q 31.203 -0.0000 34.594 -6.0938 Q 36.000 -8.7969 36.594 -12.500 Q 37.703 -18.906 37.703 -33.203 Q 37.703 -47.094 36.703 -52.703 Q 34.906 -62.203 27.500 -64.094 Q 26.203 -64.406 24.906 -64.406 Q 17.906 -64.406 14.703 -57.406 Q 13.594 -55.000 13.000 -51.594 Q 12.203 -46.203 12.203 -33.203 Q 12.203 -18.094 13.297 -12.094 Q 15.094 -2.5000 22.094 -.40625 Q 23.500 -0.0000 24.906 -0.0000 z"/>
<title>(0\,;0)</title>
<desc>texte1 = “(0\,;0)”</desc>

</g> <!-- drawing style -->
</g> <!-- clip67 -->
</g> <!-- transform -->
<g transform="matrix(.25000, 0.0000, 0.0000, .25000, 65.008, 828.75)">
<clipPath id="clipf19a5254-0f4f-4dea-9db0-093f4dfe9ef4">
  <path d="M -260.03 -3315.0 L -260.03 53.000 L 3176.0 53.000 L 3176.0 -3315.0 z"/>
</clipPath>
<g clip-path="url(#clip68)">
<g fill-opacity="1.0000" fill-rule="nonzero" stroke="none" fill="#000000">
  <path d="M 28.906 -25.000 L 28.906 -25.000 Q 28.906 -8.0938 22.594 5.5000 Q 17.406 16.594 9.4062 23.297 Q 7.2969 25.000 6.7031 25.000 Q 5.7031 25.000 5.7031 24.000 Q 5.7031 23.500 7.0000 22.297 Q 23.094 5.9062 23.094 -25.000 Q 23.094 -55.500 8.0938 -71.203 L 7.5938 -71.703 Q 5.7031 -73.500 5.7031 -74.000 Q 5.7031 -75.000 6.7031 -75.000 Q 7.9062 -75.000 12.000 -70.906 Q 18.203 -64.703 22.297 -56.203 Q 28.906 -42.594 28.906 -25.000 z"/>
<title>(0\,;0)</title>
<desc>texte1 = “(0\,;0)”</desc>

</g> <!-- drawing style -->
</g> <!-- clip68 -->
</g> <!-- transform -->
<g transform="matrix(.25000, 0.0000, 0.0000, .25000, 44.000, 539.75)">
<clipPath id="clip5fb8fc2a-1df1-4333-bb9f-214b9d14caed">
  <path d="M -176.00 -2159.0 L -176.00 1209.0 L 3260.0 1209.0 L 3260.0 -2159.0 z"/>
</clipPath>
<g clip-path="url(#clip69)">
<g fill-opacity="1.0000" fill-rule="nonzero" stroke="none" fill="#000000">
  <path d="M 33.094 24.000 L 33.094 24.000 Q 33.094 25.000 32.094 25.000 Q 30.906 25.000 26.797 20.906 Q 20.594 14.703 16.500 6.2031 Q 9.9062 -7.4062 9.9062 -25.000 Q 9.9062 -41.906 16.203 -55.500 Q 21.406 -66.594 29.406 -73.297 Q 31.500 -75.000 32.094 -75.000 Q 33.094 -75.000 33.094 -74.000 Q 33.094 -73.500 31.797 -72.297 Q 15.703 -55.906 15.703 -25.000 Q 15.703 5.7969 31.406 21.797 Q 33.094 23.500 33.094 24.000 z"/>
<title>(0\,;1)</title>
<desc>texte2 = “(0\,;1)”</desc>

</g> <!-- drawing style -->
</g> <!-- clip69 -->
</g> <!-- transform -->
<g transform="matrix(.25000, 0.0000, 0.0000, .25000, 53.725, 539.75)">
<clipPath id="clipf84e6a72-82f2-453c-8498-d88d68649744">
  <path d="M -214.90 -2159.0 L -214.90 1209.0 L 3221.1 1209.0 L 3221.1 -2159.0 z"/>
</clipPath>
<g clip-path="url(#clip70)">
<g fill-opacity="1.0000" fill-rule="nonzero" stroke="none" fill="#000000">
  <path d="M 46.000 -32.000 Q 46.000 -17.406 42.297 -9.4062 Q 36.406 1.7969 24.906 2.2031 Q 15.797 2.2031 10.297 -5.0000 Q 9.2031 -6.2969 8.4062 -7.9062 Q 3.9062 -16.203 3.9062 -32.000 Q 3.9062 -46.703 7.5938 -54.703 Q 12.594 -65.906 23.797 -66.594 L 25.000 -66.594 Q 33.906 -66.594 39.500 -59.500 L 39.500 -59.406 Q 40.906 -57.594 42.000 -55.406 Q 46.000 -46.906 46.000 -32.000 z M 24.906 -0.0000 L 24.906 -0.0000 Q 31.203 -0.0000 34.594 -6.0938 Q 36.000 -8.7969 36.594 -12.500 Q 37.703 -18.906 37.703 -33.203 Q 37.703 -47.094 36.703 -52.703 Q 34.906 -62.203 27.500 -64.094 Q 26.203 -64.406 24.906 -64.406 Q 17.906 -64.406 14.703 -57.406 Q 13.594 -55.000 13.000 -51.594 Q 12.203 -46.203 12.203 -33.203 Q 12.203 -18.094 13.297 -12.094 Q 15.094 -2.5000 22.094 -.40625 Q 23.500 -0.0000 24.906 -0.0000 z"/>
<title>(0\,;1)</title>
<desc>texte2 = “(0\,;1)”</desc>

</g> <!-- drawing style -->
</g> <!-- clip70 -->
</g> <!-- transform -->
<g transform="matrix(.25000, 0.0000, 0.0000, .25000, 70.392, 539.75)">
<clipPath id="clipc92fa392-e7e3-43fd-b809-97d5b15ee0dc">
  <path d="M -281.57 -2159.0 L -281.57 1209.0 L 3154.4 1209.0 L 3154.4 -2159.0 z"/>
</clipPath>
<g clip-path="url(#clip71)">
<g fill-opacity="1.0000" fill-rule="nonzero" stroke="none" fill="#000000">
  <path d="M 19.203 -37.797 Q 19.203 -34.500 16.203 -33.000 Q 15.094 -32.500 13.906 -32.500 Q 10.594 -32.500 9.0938 -35.500 Q 8.5938 -36.594 8.5938 -37.797 Q 8.5938 -41.094 11.594 -42.594 Q 12.703 -43.094 13.906 -43.094 Q 17.203 -43.094 18.703 -40.094 Q 19.203 -39.000 19.203 -37.797 z M 17.297 -1.0938 L 17.297 -1.0938 Q 16.406 -.29688 14.703 -.093750 Q 14.594 -0.0000 13.906 -0.0000 Q 9.9062 -0.0000 8.7969 -3.7031 Q 8.5938 -4.5000 8.5938 -5.2969 Q 8.5938 -8.7969 11.594 -10.203 Q 12.703 -10.594 13.906 -10.594 Q 19.500 -10.594 19.500 -.29688 Q 19.500 9.5000 13.703 17.000 Q 11.906 19.297 11.203 19.297 Q 10.203 19.297 10.203 18.203 Q 10.203 17.703 10.906 16.906 Q 17.297 9.5000 17.297 -1.0938 z"/>
<title>(0\,;1)</title>
<desc>texte2 = “(0\,;1)”</desc>

</g> <!-- drawing style -->
</g> <!-- clip71 -->
</g> <!-- transform -->
<g transform="matrix(.25000, 0.0000, 0.0000, .25000, 81.508, 539.75)">
<clipPath id="clip49865a96-ece5-4289-aad4-bdee8df4a4a5">
  <path d="M -326.03 -2159.0 L -326.03 1209.0 L 3110.0 1209.0 L 3110.0 -2159.0 z"/>
</clipPath>
<g clip-path="url(#clip72)">
<g fill-opacity="1.0000" fill-rule="nonzero" stroke="none" fill="#000000">
  <path d="M 29.406 -64.000 L 29.406 -7.9062 Q 29.406 -4.9062 30.594 -4.0938 Q 32.297 -3.0938 38.703 -3.0938 L 41.906 -3.0938 L 41.906 -0.0000 Q 38.406 -.29688 25.703 -.29688 Q 13.000 -.29688 9.5000 -0.0000 L 9.5000 -3.0938 L 12.703 -3.0938 Q 20.406 -3.0938 21.500 -4.9062 L 21.594 -5.0000 Q 22.000 -5.7969 22.000 -7.9062 L 22.000 -59.703 Q 16.797 -57.094 8.9062 -57.094 L 8.9062 -60.203 Q 20.906 -60.203 27.094 -66.594 Q 29.000 -66.594 29.297 -65.906 L 29.297 -65.906 L 29.297 -65.797 Q 29.406 -65.500 29.406 -64.000 z"/>
<title>(0\,;1)</title>
<desc>texte2 = “(0\,;1)”</desc>

</g> <!-- drawing style -->
</g> <!-- clip72 -->
</g> <!-- transform -->
<g transform="matrix(.25000, 0.0000, 0.0000, .25000, 94.008, 539.75)">
<clipPath id="clip64c649c2-0ace-4073-93f5-c7c800bddd26">
  <path d="M -376.03 -2159.0 L -376.03 1209.0 L 3060.0 1209.0 L 3060.0 -2159.0 z"/>
</clipPath>
<g clip-path="url(#clip73)">
<g fill-opacity="1.0000" fill-rule="nonzero" stroke="none" fill="#000000">
  <path d="M 28.906 -25.000 L 28.906 -25.000 Q 28.906 -8.0938 22.594 5.5000 Q 17.406 16.594 9.4062 23.297 Q 7.2969 25.000 6.7031 25.000 Q 5.7031 25.000 5.7031 24.000 Q 5.7031 23.500 7.0000 22.297 Q 23.094 5.9062 23.094 -25.000 Q 23.094 -55.500 8.0938 -71.203 L 7.5938 -71.703 Q 5.7031 -73.500 5.7031 -74.000 Q 5.7031 -75.000 6.7031 -75.000 Q 7.9062 -75.000 12.000 -70.906 Q 18.203 -64.703 22.297 -56.203 Q 28.906 -42.594 28.906 -25.000 z"/>
<title>(0\,;1)</title>
<desc>texte2 = “(0\,;1)”</desc>

</g> <!-- drawing style -->
</g> <!-- clip73 -->
</g> <!-- transform -->
<g transform="matrix(.25000, 0.0000, 0.0000, .25000, 517.00, 828.75)">
<clipPath id="clipd763f74c-3987-4481-89ed-acd5f9c74b15">
  <path d="M -2068.0 -3315.0 L -2068.0 53.000 L 1368.0 53.000 L 1368.0 -3315.0 z"/>
</clipPath>
<g clip-path="url(#clip74)">
<g fill-opacity="1.0000" fill-rule="nonzero" stroke="none" fill="#000000">
  <path d="M 33.094 24.000 L 33.094 24.000 Q 33.094 25.000 32.094 25.000 Q 30.906 25.000 26.797 20.906 Q 20.594 14.703 16.500 6.2031 Q 9.9062 -7.4062 9.9062 -25.000 Q 9.9062 -41.906 16.203 -55.500 Q 21.406 -66.594 29.406 -73.297 Q 31.500 -75.000 32.094 -75.000 Q 33.094 -75.000 33.094 -74.000 Q 33.094 -73.500 31.797 -72.297 Q 15.703 -55.906 15.703 -25.000 Q 15.703 5.7969 31.406 21.797 Q 33.094 23.500 33.094 24.000 z"/>
<title>(2\,;0)</title>
<desc>texte3 = “(2\,;0)”</desc>

</g> <!-- drawing style -->
</g> <!-- clip74 -->
</g> <!-- transform -->
<g transform="matrix(.25000, 0.0000, 0.0000, .25000, 526.73, 828.75)">
<clipPath id="clipc66a5206-2d77-47f3-b820-7aa44f0b7c2d">
  <path d="M -2106.9 -3315.0 L -2106.9 53.000 L 1329.1 53.000 L 1329.1 -3315.0 z"/>
</clipPath>
<g clip-path="url(#clip75)">
<g fill-opacity="1.0000" fill-rule="nonzero" stroke="none" fill="#000000">
  <path d="M 44.906 -17.406 L 44.906 -17.406 L 42.094 -0.0000 L 5.0000 -0.0000 Q 5.0000 -2.5000 5.5938 -3.2031 L 6.0938 -3.7031 L 25.297 -25.094 Q 35.797 -36.906 35.797 -47.203 Q 35.797 -56.094 30.406 -60.703 L 30.297 -60.797 L 30.203 -60.797 Q 27.000 -63.500 22.406 -63.500 Q 15.203 -63.500 10.906 -57.297 Q 9.7031 -55.500 8.9062 -53.297 Q 9.2031 -53.406 10.203 -53.406 Q 14.203 -53.406 15.297 -49.797 L 15.297 -49.703 Q 15.500 -49.000 15.500 -48.203 Q 15.500 -44.203 11.703 -43.094 Q 10.906 -42.906 10.297 -42.906 Q 6.5938 -42.906 5.4062 -46.000 Q 5.0000 -47.094 5.0000 -48.500 Q 5.0000 -56.203 10.906 -61.703 Q 16.203 -66.594 23.703 -66.594 Q 34.703 -66.594 40.797 -59.203 Q 44.297 -54.906 44.797 -49.000 Q 44.906 -48.094 44.906 -47.203 Q 44.906 -39.906 39.406 -33.297 Q 36.500 -29.906 30.406 -24.297 L 24.297 -18.906 L 23.297 -18.000 L 12.703 -7.7031 L 30.703 -7.7031 Q 39.500 -7.7031 40.203 -8.5000 Q 41.203 -9.9062 42.406 -17.406 L 44.906 -17.406 z"/>
<title>(2\,;0)</title>
<desc>texte3 = “(2\,;0)”</desc>

</g> <!-- drawing style -->
</g> <!-- clip75 -->
</g> <!-- transform -->
<g transform="matrix(.25000, 0.0000, 0.0000, .25000, 543.39, 828.75)">
<clipPath id="clip49042c56-00be-4403-8c4b-203b0a3cc4ae">
  <path d="M -2173.6 -3315.0 L -2173.6 53.000 L 1262.4 53.000 L 1262.4 -3315.0 z"/>
</clipPath>
<g clip-path="url(#clip76)">
<g fill-opacity="1.0000" fill-rule="nonzero" stroke="none" fill="#000000">
  <path d="M 19.203 -37.797 Q 19.203 -34.500 16.203 -33.000 Q 15.094 -32.500 13.906 -32.500 Q 10.594 -32.500 9.0938 -35.500 Q 8.5938 -36.594 8.5938 -37.797 Q 8.5938 -41.094 11.594 -42.594 Q 12.703 -43.094 13.906 -43.094 Q 17.203 -43.094 18.703 -40.094 Q 19.203 -39.000 19.203 -37.797 z M 17.297 -1.0938 L 17.297 -1.0938 Q 16.406 -.29688 14.703 -.093750 Q 14.594 -0.0000 13.906 -0.0000 Q 9.9062 -0.0000 8.7969 -3.7031 Q 8.5938 -4.5000 8.5938 -5.2969 Q 8.5938 -8.7969 11.594 -10.203 Q 12.703 -10.594 13.906 -10.594 Q 19.500 -10.594 19.500 -.29688 Q 19.500 9.5000 13.703 17.000 Q 11.906 19.297 11.203 19.297 Q 10.203 19.297 10.203 18.203 Q 10.203 17.703 10.906 16.906 Q 17.297 9.5000 17.297 -1.0938 z"/>
<title>(2\,;0)</title>
<desc>texte3 = “(2\,;0)”</desc>

</g> <!-- drawing style -->
</g> <!-- clip76 -->
</g> <!-- transform -->
<g transform="matrix(.25000, 0.0000, 0.0000, .25000, 554.51, 828.75)">
<clipPath id="clipf9071661-14b3-491b-96ce-99368a87ae5b">
  <path d="M -2218.0 -3315.0 L -2218.0 53.000 L 1218.0 53.000 L 1218.0 -3315.0 z"/>
</clipPath>
<g clip-path="url(#clip77)">
<g fill-opacity="1.0000" fill-rule="nonzero" stroke="none" fill="#000000">
  <path d="M 46.000 -32.000 Q 46.000 -17.406 42.297 -9.4062 Q 36.406 1.7969 24.906 2.2031 Q 15.797 2.2031 10.297 -5.0000 Q 9.2031 -6.2969 8.4062 -7.9062 Q 3.9062 -16.203 3.9062 -32.000 Q 3.9062 -46.703 7.5938 -54.703 Q 12.594 -65.906 23.797 -66.594 L 25.000 -66.594 Q 33.906 -66.594 39.500 -59.500 L 39.500 -59.406 Q 40.906 -57.594 42.000 -55.406 Q 46.000 -46.906 46.000 -32.000 z M 24.906 -0.0000 L 24.906 -0.0000 Q 31.203 -0.0000 34.594 -6.0938 Q 36.000 -8.7969 36.594 -12.500 Q 37.703 -18.906 37.703 -33.203 Q 37.703 -47.094 36.703 -52.703 Q 34.906 -62.203 27.500 -64.094 Q 26.203 -64.406 24.906 -64.406 Q 17.906 -64.406 14.703 -57.406 Q 13.594 -55.000 13.000 -51.594 Q 12.203 -46.203 12.203 -33.203 Q 12.203 -18.094 13.297 -12.094 Q 15.094 -2.5000 22.094 -.40625 Q 23.500 -0.0000 24.906 -0.0000 z"/>
<title>(2\,;0)</title>
<desc>texte3 = “(2\,;0)”</desc>

</g> <!-- drawing style -->
</g> <!-- clip77 -->
</g> <!-- transform -->
<g transform="matrix(.25000, 0.0000, 0.0000, .25000, 567.01, 828.75)">
<clipPath id="clip07a4037b-f07b-4973-903c-0338d7654a47">
  <path d="M -2268.0 -3315.0 L -2268.0 53.000 L 1168.0 53.000 L 1168.0 -3315.0 z"/>
</clipPath>
<g clip-path="url(#clip78)">
<g fill-opacity="1.0000" fill-rule="nonzero" stroke="none" fill="#000000">
  <path d="M 28.906 -25.000 L 28.906 -25.000 Q 28.906 -8.0938 22.594 5.5000 Q 17.406 16.594 9.4062 23.297 Q 7.2969 25.000 6.7031 25.000 Q 5.7031 25.000 5.7031 24.000 Q 5.7031 23.500 7.0000 22.297 Q 23.094 5.9062 23.094 -25.000 Q 23.094 -55.500 8.0938 -71.203 L 7.5938 -71.703 Q 5.7031 -73.500 5.7031 -74.000 Q 5.7031 -75.000 6.7031 -75.000 Q 7.9062 -75.000 12.000 -70.906 Q 18.203 -64.703 22.297 -56.203 Q 28.906 -42.594 28.906 -25.000 z"/>
<title>(2\,;0)</title>
<desc>texte3 = “(2\,;0)”</desc>

</g> <!-- drawing style -->
</g> <!-- clip78 -->
</g> <!-- transform -->
<g transform="matrix(.25000, 0.0000, 0.0000, .25000, 520.00, 32.750)">
<clipPath id="clipb7d56a52-16eb-4c97-bc3f-d4b05357a28d">
  <path d="M -2080.0 -131.00 L -2080.0 3237.0 L 1356.0 3237.0 L 1356.0 -131.00 z"/>
</clipPath>
<g clip-path="url(#clip79)">
<g fill-opacity="1.0000" fill-rule="nonzero" stroke="none" fill="#000000">
  <path d="M 33.094 24.000 L 33.094 24.000 Q 33.094 25.000 32.094 25.000 Q 30.906 25.000 26.797 20.906 Q 20.594 14.703 16.500 6.2031 Q 9.9062 -7.4062 9.9062 -25.000 Q 9.9062 -41.906 16.203 -55.500 Q 21.406 -66.594 29.406 -73.297 Q 31.500 -75.000 32.094 -75.000 Q 33.094 -75.000 33.094 -74.000 Q 33.094 -73.500 31.797 -72.297 Q 15.703 -55.906 15.703 -25.000 Q 15.703 5.7969 31.406 21.797 Q 33.094 23.500 33.094 24.000 z"/>
<title>(2\,;3)</title>
<desc>texte4 = “(2\,;3)”</desc>

</g> <!-- drawing style -->
</g> <!-- clip79 -->
</g> <!-- transform -->
<g transform="matrix(.25000, 0.0000, 0.0000, .25000, 529.72, 32.750)">
<clipPath id="clip7c5f109e-8684-486a-89bb-ce05c2c200ff">
  <path d="M -2118.9 -131.00 L -2118.9 3237.0 L 1317.1 3237.0 L 1317.1 -131.00 z"/>
</clipPath>
<g clip-path="url(#clip80)">
<g fill-opacity="1.0000" fill-rule="nonzero" stroke="none" fill="#000000">
  <path d="M 44.906 -17.406 L 44.906 -17.406 L 42.094 -0.0000 L 5.0000 -0.0000 Q 5.0000 -2.5000 5.5938 -3.2031 L 6.0938 -3.7031 L 25.297 -25.094 Q 35.797 -36.906 35.797 -47.203 Q 35.797 -56.094 30.406 -60.703 L 30.297 -60.797 L 30.203 -60.797 Q 27.000 -63.500 22.406 -63.500 Q 15.203 -63.500 10.906 -57.297 Q 9.7031 -55.500 8.9062 -53.297 Q 9.2031 -53.406 10.203 -53.406 Q 14.203 -53.406 15.297 -49.797 L 15.297 -49.703 Q 15.500 -49.000 15.500 -48.203 Q 15.500 -44.203 11.703 -43.094 Q 10.906 -42.906 10.297 -42.906 Q 6.5938 -42.906 5.4062 -46.000 Q 5.0000 -47.094 5.0000 -48.500 Q 5.0000 -56.203 10.906 -61.703 Q 16.203 -66.594 23.703 -66.594 Q 34.703 -66.594 40.797 -59.203 Q 44.297 -54.906 44.797 -49.000 Q 44.906 -48.094 44.906 -47.203 Q 44.906 -39.906 39.406 -33.297 Q 36.500 -29.906 30.406 -24.297 L 24.297 -18.906 L 23.297 -18.000 L 12.703 -7.7031 L 30.703 -7.7031 Q 39.500 -7.7031 40.203 -8.5000 Q 41.203 -9.9062 42.406 -17.406 L 44.906 -17.406 z"/>
<title>(2\,;3)</title>
<desc>texte4 = “(2\,;3)”</desc>

</g> <!-- drawing style -->
</g> <!-- clip80 -->
</g> <!-- transform -->
<g transform="matrix(.25000, 0.0000, 0.0000, .25000, 546.39, 32.750)">
<clipPath id="clip95913386-eb4a-4404-8095-0a5358919335">
  <path d="M -2185.6 -131.00 L -2185.6 3237.0 L 1250.4 3237.0 L 1250.4 -131.00 z"/>
</clipPath>
<g clip-path="url(#clip81)">
<g fill-opacity="1.0000" fill-rule="nonzero" stroke="none" fill="#000000">
  <path d="M 19.203 -37.797 Q 19.203 -34.500 16.203 -33.000 Q 15.094 -32.500 13.906 -32.500 Q 10.594 -32.500 9.0938 -35.500 Q 8.5938 -36.594 8.5938 -37.797 Q 8.5938 -41.094 11.594 -42.594 Q 12.703 -43.094 13.906 -43.094 Q 17.203 -43.094 18.703 -40.094 Q 19.203 -39.000 19.203 -37.797 z M 17.297 -1.0938 L 17.297 -1.0938 Q 16.406 -.29688 14.703 -.093750 Q 14.594 -0.0000 13.906 -0.0000 Q 9.9062 -0.0000 8.7969 -3.7031 Q 8.5938 -4.5000 8.5938 -5.2969 Q 8.5938 -8.7969 11.594 -10.203 Q 12.703 -10.594 13.906 -10.594 Q 19.500 -10.594 19.500 -.29688 Q 19.500 9.5000 13.703 17.000 Q 11.906 19.297 11.203 19.297 Q 10.203 19.297 10.203 18.203 Q 10.203 17.703 10.906 16.906 Q 17.297 9.5000 17.297 -1.0938 z"/>
<title>(2\,;3)</title>
<desc>texte4 = “(2\,;3)”</desc>

</g> <!-- drawing style -->
</g> <!-- clip81 -->
</g> <!-- transform -->
<g transform="matrix(.25000, 0.0000, 0.0000, .25000, 557.51, 32.750)">
<clipPath id="clipd4f57263-25db-476b-b358-383ccf54ce5d">
  <path d="M -2230.0 -131.00 L -2230.0 3237.0 L 1206.0 3237.0 L 1206.0 -131.00 z"/>
</clipPath>
<g clip-path="url(#clip82)">
<g fill-opacity="1.0000" fill-rule="nonzero" stroke="none" fill="#000000">
  <path d="M 29.000 -35.203 L 29.000 -35.203 Q 39.000 -33.203 43.406 -25.406 Q 45.703 -21.500 45.703 -17.094 Q 45.703 -8.5938 38.703 -2.7969 Q 32.594 2.2031 24.406 2.2031 Q 14.500 2.2031 8.5000 -3.7031 Q 4.2031 -7.9062 4.2031 -13.500 Q 4.2031 -18.203 8.4062 -19.094 Q 9.0938 -19.297 9.7969 -19.297 Q 13.594 -19.297 14.906 -16.094 Q 15.297 -14.797 15.406 -13.703 Q 15.406 -9.7031 11.797 -8.5000 Q 10.406 -8.0000 8.7969 -8.2031 Q 12.500 -2.0000 21.594 -.79688 Q 22.906 -.59375 24.094 -.59375 Q 30.500 -.59375 33.500 -6.9062 Q 35.406 -10.906 35.406 -17.094 Q 35.406 -30.406 27.406 -33.094 Q 25.594 -33.703 23.500 -33.703 L 19.094 -33.703 Q 16.906 -33.703 16.703 -34.797 Q 16.703 -35.797 18.203 -36.000 Q 19.703 -36.000 22.094 -36.297 Q 27.203 -36.500 30.094 -40.203 L 30.094 -40.297 L 30.203 -40.406 L 30.297 -40.500 L 30.406 -40.500 L 31.000 -41.500 Q 33.797 -46.203 33.797 -52.906 Q 33.797 -62.203 26.594 -63.797 Q 25.406 -64.094 24.203 -64.094 Q 17.203 -64.094 12.797 -60.094 Q 11.703 -59.094 10.906 -57.906 Q 17.094 -57.906 17.094 -52.906 Q 17.094 -49.297 14.000 -48.094 Q 13.094 -47.797 12.000 -47.797 Q 8.0938 -47.797 7.0938 -51.297 L 7.0938 -51.297 L 7.0938 -51.406 Q 6.9062 -52.203 6.9062 -53.000 Q 6.9062 -59.703 13.500 -63.703 Q 18.297 -66.594 24.594 -66.594 Q 33.703 -66.594 39.297 -61.203 L 39.500 -61.000 Q 43.000 -57.406 43.000 -52.797 Q 43.000 -44.500 35.906 -38.906 Q 32.797 -36.500 29.000 -35.203 z"/>
<title>(2\,;3)</title>
<desc>texte4 = “(2\,;3)”</desc>

</g> <!-- drawing style -->
</g> <!-- clip82 -->
</g> <!-- transform -->
<g transform="matrix(.25000, 0.0000, 0.0000, .25000, 570.01, 32.750)">
<clipPath id="clip4320d930-714f-47af-9bf7-1e549b78a098">
  <path d="M -2280.0 -131.00 L -2280.0 3237.0 L 1156.0 3237.0 L 1156.0 -131.00 z"/>
</clipPath>
<g clip-path="url(#clip83)">
<g fill-opacity="1.0000" fill-rule="nonzero" stroke="none" fill="#000000">
  <path d="M 28.906 -25.000 L 28.906 -25.000 Q 28.906 -8.0938 22.594 5.5000 Q 17.406 16.594 9.4062 23.297 Q 7.2969 25.000 6.7031 25.000 Q 5.7031 25.000 5.7031 24.000 Q 5.7031 23.500 7.0000 22.297 Q 23.094 5.9062 23.094 -25.000 Q 23.094 -55.500 8.0938 -71.203 L 7.5938 -71.703 Q 5.7031 -73.500 5.7031 -74.000 Q 5.7031 -75.000 6.7031 -75.000 Q 7.9062 -75.000 12.000 -70.906 Q 18.203 -64.703 22.297 -56.203 Q 28.906 -42.594 28.906 -25.000 z"/>
<title>(2\,;3)</title>
<desc>texte4 = “(2\,;3)”</desc>

</g> <!-- drawing style -->
</g> <!-- clip83 -->
</g> <!-- transform -->
<g transform="matrix(.25000, 0.0000, 0.0000, .25000, 770.00, 36.750)">
<clipPath id="clip0bd80a98-705d-4c73-b145-27dfa47283b6">
  <path d="M -3080.0 -147.00 L -3080.0 3221.0 L 356.00 3221.0 L 356.00 -147.00 z"/>
</clipPath>
<g clip-path="url(#clip84)">
<g fill-opacity="1.0000" fill-rule="nonzero" stroke="none" fill="#000000">
  <path d="M 33.094 24.000 L 33.094 24.000 Q 33.094 25.000 32.094 25.000 Q 30.906 25.000 26.797 20.906 Q 20.594 14.703 16.500 6.2031 Q 9.9062 -7.4062 9.9062 -25.000 Q 9.9062 -41.906 16.203 -55.500 Q 21.406 -66.594 29.406 -73.297 Q 31.500 -75.000 32.094 -75.000 Q 33.094 -75.000 33.094 -74.000 Q 33.094 -73.500 31.797 -72.297 Q 15.703 -55.906 15.703 -25.000 Q 15.703 5.7969 31.406 21.797 Q 33.094 23.500 33.094 24.000 z"/>
<title>(3\,;3)</title>
<desc>texte5 = “(3\,;3)”</desc>

</g> <!-- drawing style -->
</g> <!-- clip84 -->
</g> <!-- transform -->
<g transform="matrix(.25000, 0.0000, 0.0000, .25000, 779.73, 36.750)">
<clipPath id="clip99c76d05-5097-47ad-8fca-a22b214707a5">
  <path d="M -3118.9 -147.00 L -3118.9 3221.0 L 317.10 3221.0 L 317.10 -147.00 z"/>
</clipPath>
<g clip-path="url(#clip85)">
<g fill-opacity="1.0000" fill-rule="nonzero" stroke="none" fill="#000000">
  <path d="M 29.000 -35.203 L 29.000 -35.203 Q 39.000 -33.203 43.406 -25.406 Q 45.703 -21.500 45.703 -17.094 Q 45.703 -8.5938 38.703 -2.7969 Q 32.594 2.2031 24.406 2.2031 Q 14.500 2.2031 8.5000 -3.7031 Q 4.2031 -7.9062 4.2031 -13.500 Q 4.2031 -18.203 8.4062 -19.094 Q 9.0938 -19.297 9.7969 -19.297 Q 13.594 -19.297 14.906 -16.094 Q 15.297 -14.797 15.406 -13.703 Q 15.406 -9.7031 11.797 -8.5000 Q 10.406 -8.0000 8.7969 -8.2031 Q 12.500 -2.0000 21.594 -.79688 Q 22.906 -.59375 24.094 -.59375 Q 30.500 -.59375 33.500 -6.9062 Q 35.406 -10.906 35.406 -17.094 Q 35.406 -30.406 27.406 -33.094 Q 25.594 -33.703 23.500 -33.703 L 19.094 -33.703 Q 16.906 -33.703 16.703 -34.797 Q 16.703 -35.797 18.203 -36.000 Q 19.703 -36.000 22.094 -36.297 Q 27.203 -36.500 30.094 -40.203 L 30.094 -40.297 L 30.203 -40.406 L 30.297 -40.500 L 30.406 -40.500 L 31.000 -41.500 Q 33.797 -46.203 33.797 -52.906 Q 33.797 -62.203 26.594 -63.797 Q 25.406 -64.094 24.203 -64.094 Q 17.203 -64.094 12.797 -60.094 Q 11.703 -59.094 10.906 -57.906 Q 17.094 -57.906 17.094 -52.906 Q 17.094 -49.297 14.000 -48.094 Q 13.094 -47.797 12.000 -47.797 Q 8.0938 -47.797 7.0938 -51.297 L 7.0938 -51.297 L 7.0938 -51.406 Q 6.9062 -52.203 6.9062 -53.000 Q 6.9062 -59.703 13.500 -63.703 Q 18.297 -66.594 24.594 -66.594 Q 33.703 -66.594 39.297 -61.203 L 39.500 -61.000 Q 43.000 -57.406 43.000 -52.797 Q 43.000 -44.500 35.906 -38.906 Q 32.797 -36.500 29.000 -35.203 z"/>
<title>(3\,;3)</title>
<desc>texte5 = “(3\,;3)”</desc>

</g> <!-- drawing style -->
</g> <!-- clip85 -->
</g> <!-- transform -->
<g transform="matrix(.25000, 0.0000, 0.0000, .25000, 796.39, 36.750)">
<clipPath id="clip305ed80f-533c-4cfe-9909-2c7c677672b1">
  <path d="M -3185.6 -147.00 L -3185.6 3221.0 L 250.43 3221.0 L 250.43 -147.00 z"/>
</clipPath>
<g clip-path="url(#clip86)">
<g fill-opacity="1.0000" fill-rule="nonzero" stroke="none" fill="#000000">
  <path d="M 19.203 -37.797 Q 19.203 -34.500 16.203 -33.000 Q 15.094 -32.500 13.906 -32.500 Q 10.594 -32.500 9.0938 -35.500 Q 8.5938 -36.594 8.5938 -37.797 Q 8.5938 -41.094 11.594 -42.594 Q 12.703 -43.094 13.906 -43.094 Q 17.203 -43.094 18.703 -40.094 Q 19.203 -39.000 19.203 -37.797 z M 17.297 -1.0938 L 17.297 -1.0938 Q 16.406 -.29688 14.703 -.093750 Q 14.594 -0.0000 13.906 -0.0000 Q 9.9062 -0.0000 8.7969 -3.7031 Q 8.5938 -4.5000 8.5938 -5.2969 Q 8.5938 -8.7969 11.594 -10.203 Q 12.703 -10.594 13.906 -10.594 Q 19.500 -10.594 19.500 -.29688 Q 19.500 9.5000 13.703 17.000 Q 11.906 19.297 11.203 19.297 Q 10.203 19.297 10.203 18.203 Q 10.203 17.703 10.906 16.906 Q 17.297 9.5000 17.297 -1.0938 z"/>
<title>(3\,;3)</title>
<desc>texte5 = “(3\,;3)”</desc>

</g> <!-- drawing style -->
</g> <!-- clip86 -->
</g> <!-- transform -->
<g transform="matrix(.25000, 0.0000, 0.0000, .25000, 807.51, 36.750)">
<clipPath id="clip8998d383-6a79-422d-990d-9d0a3d3c7e26">
  <path d="M -3230.0 -147.00 L -3230.0 3221.0 L 205.97 3221.0 L 205.97 -147.00 z"/>
</clipPath>
<g clip-path="url(#clip87)">
<g fill-opacity="1.0000" fill-rule="nonzero" stroke="none" fill="#000000">
  <path d="M 29.000 -35.203 L 29.000 -35.203 Q 39.000 -33.203 43.406 -25.406 Q 45.703 -21.500 45.703 -17.094 Q 45.703 -8.5938 38.703 -2.7969 Q 32.594 2.2031 24.406 2.2031 Q 14.500 2.2031 8.5000 -3.7031 Q 4.2031 -7.9062 4.2031 -13.500 Q 4.2031 -18.203 8.4062 -19.094 Q 9.0938 -19.297 9.7969 -19.297 Q 13.594 -19.297 14.906 -16.094 Q 15.297 -14.797 15.406 -13.703 Q 15.406 -9.7031 11.797 -8.5000 Q 10.406 -8.0000 8.7969 -8.2031 Q 12.500 -2.0000 21.594 -.79688 Q 22.906 -.59375 24.094 -.59375 Q 30.500 -.59375 33.500 -6.9062 Q 35.406 -10.906 35.406 -17.094 Q 35.406 -30.406 27.406 -33.094 Q 25.594 -33.703 23.500 -33.703 L 19.094 -33.703 Q 16.906 -33.703 16.703 -34.797 Q 16.703 -35.797 18.203 -36.000 Q 19.703 -36.000 22.094 -36.297 Q 27.203 -36.500 30.094 -40.203 L 30.094 -40.297 L 30.203 -40.406 L 30.297 -40.500 L 30.406 -40.500 L 31.000 -41.500 Q 33.797 -46.203 33.797 -52.906 Q 33.797 -62.203 26.594 -63.797 Q 25.406 -64.094 24.203 -64.094 Q 17.203 -64.094 12.797 -60.094 Q 11.703 -59.094 10.906 -57.906 Q 17.094 -57.906 17.094 -52.906 Q 17.094 -49.297 14.000 -48.094 Q 13.094 -47.797 12.000 -47.797 Q 8.0938 -47.797 7.0938 -51.297 L 7.0938 -51.297 L 7.0938 -51.406 Q 6.9062 -52.203 6.9062 -53.000 Q 6.9062 -59.703 13.500 -63.703 Q 18.297 -66.594 24.594 -66.594 Q 33.703 -66.594 39.297 -61.203 L 39.500 -61.000 Q 43.000 -57.406 43.000 -52.797 Q 43.000 -44.500 35.906 -38.906 Q 32.797 -36.500 29.000 -35.203 z"/>
<title>(3\,;3)</title>
<desc>texte5 = “(3\,;3)”</desc>

</g> <!-- drawing style -->
</g> <!-- clip87 -->
</g> <!-- transform -->
<g transform="matrix(.25000, 0.0000, 0.0000, .25000, 820.01, 36.750)">
<clipPath id="clipb74d0812-fe9a-4f88-b993-56b8d7e82724">
  <path d="M -3280.0 -147.00 L -3280.0 3221.0 L 155.97 3221.0 L 155.97 -147.00 z"/>
</clipPath>
<g clip-path="url(#clip88)">
<g fill-opacity="1.0000" fill-rule="nonzero" stroke="none" fill="#000000">
  <path d="M 28.906 -25.000 L 28.906 -25.000 Q 28.906 -8.0938 22.594 5.5000 Q 17.406 16.594 9.4062 23.297 Q 7.2969 25.000 6.7031 25.000 Q 5.7031 25.000 5.7031 24.000 Q 5.7031 23.500 7.0000 22.297 Q 23.094 5.9062 23.094 -25.000 Q 23.094 -55.500 8.0938 -71.203 L 7.5938 -71.703 Q 5.7031 -73.500 5.7031 -74.000 Q 5.7031 -75.000 6.7031 -75.000 Q 7.9062 -75.000 12.000 -70.906 Q 18.203 -64.703 22.297 -56.203 Q 28.906 -42.594 28.906 -25.000 z"/>
<title>(3\,;3)</title>
<desc>texte5 = “(3\,;3)”</desc>

</g> <!-- drawing style -->
</g> <!-- clip88 -->
</g> <!-- transform -->
</g><!-- layer0 -->
</g> <!-- default stroke -->
</svg> <!-- bounding box -->
