<?xml version="1.0" encoding="UTF-8" standalone="no"?>
<!DOCTYPE svg PUBLIC "-//W3C//DTD SVG 1.0//EN" "http://www.w3.org/TR/2001/PR-SVG-20010719/DTD/svg10.dtd">
<svg width="27cm" height="11cm" viewBox="67 154 525 206" xmlns="http://www.w3.org/2000/svg" xmlns:xlink="http://www.w3.org/1999/xlink">
  <defs/>
  <g id="Arrière-plan">
    <rect style="fill: #ffffff; fill-opacity: 1; stroke-opacity: 1; stroke-width: 3; stroke: #000000" x="175" y="309.5" width="60" height="49" rx="0" ry="0"/>
    <text font-size="22.5778" style="fill: #000000; fill-opacity: 1; stroke: none;text-anchor:middle;font-family:sans-serif;font-style:normal;font-weight:700" x="205" y="341.488">
      <tspan x="205" y="341.488">10</tspan>
    </text>
    <rect style="fill: #ffffff; fill-opacity: 1; stroke-opacity: 1; stroke-width: 3; stroke: #000000" x="233" y="309.4" width="60" height="49" rx="0" ry="0"/>
    <rect style="fill: #ffffff; fill-opacity: 1; stroke-opacity: 1; stroke-width: 3; stroke: #000000" x="291.5" y="309.3" width="60" height="49" rx="0" ry="0"/>
    <text font-size="22.5778" style="fill: #000000; fill-opacity: 1; stroke: none;text-anchor:middle;font-family:sans-serif;font-style:normal;font-weight:700" x="263" y="341.388">
      <tspan x="263" y="341.388">11</tspan>
    </text>
    <text font-size="22.5778" style="fill: #000000; fill-opacity: 1; stroke: none;text-anchor:start;font-family:sans-serif;font-style:normal;font-weight:normal" x="67" y="191">
      <tspan x="67" y="191">tableau_1</tspan>
    </text>
    <g>
      <line style="fill: none; stroke-opacity: 1; stroke-width: 3; stroke: #000000" x1="494.05" y1="186.957" x2="275.072" y2="295.325"/>
      <polyline style="fill: none; stroke-opacity: 1; stroke-width: 3; stroke: #000000" points="278.811,287.896 272.066,296.812 283.246,296.858 "/>
    </g>
    <text font-size="22.5778" style="fill: #000000; fill-opacity: 1; stroke: none;text-anchor:start;font-family:sans-serif;font-style:normal;font-weight:normal" x="346" y="188">
      <tspan x="346" y="188">tableau_2</tspan>
    </text>
    <g>
      <line style="fill: none; stroke-opacity: 1; stroke-width: 3; stroke: #000000" x1="217.06" y1="190.3" x2="245.339" y2="296.816"/>
      <polyline style="fill: none; stroke-opacity: 1; stroke-width: 3; stroke: #000000" points="238.801,291.676 246.199,300.058 248.466,289.11 "/>
    </g>
    <text font-size="22.5778" style="fill: #000000; fill-opacity: 1; stroke: none;text-anchor:middle;font-family:sans-serif;font-style:normal;font-weight:700" x="321.5" y="341.288">
      <tspan x="321.5" y="341.288">12</tspan>
    </text>
    <rect style="fill: #ffffff; fill-opacity: 1; stroke-opacity: 1; stroke-width: 3; stroke: #000000" x="411.2" y="308.9" width="60" height="49" rx="0" ry="0"/>
    <text font-size="22.5778" style="fill: #000000; fill-opacity: 1; stroke: none;text-anchor:middle;font-family:sans-serif;font-style:normal;font-weight:700" x="441.2" y="340.888">
      <tspan x="441.2" y="340.888">14</tspan>
    </text>
    <rect style="fill: #ffffff; fill-opacity: 1; stroke-opacity: 1; stroke-width: 3; stroke: #000000" x="471.2" y="308.8" width="60" height="49" rx="0" ry="0"/>
    <rect style="fill: #ffffff; fill-opacity: 1; stroke-opacity: 1; stroke-width: 3; stroke: #000000" x="529.7" y="308.7" width="60" height="49" rx="0" ry="0"/>
    <text font-size="22.5778" style="fill: #000000; fill-opacity: 1; stroke: none;text-anchor:middle;font-family:sans-serif;font-style:normal;font-weight:700" x="501.2" y="340.788">
      <tspan x="501.2" y="340.788">15</tspan>
    </text>
    <text font-size="22.5778" style="fill: #000000; fill-opacity: 1; stroke: none;text-anchor:middle;font-family:sans-serif;font-style:normal;font-weight:700" x="559.7" y="340.688">
      <tspan x="559.7" y="340.688">16</tspan>
    </text>
    <rect style="fill: none; stroke-opacity: 1; stroke-width: 3; stroke: #000000" x="189.2" y="157" width="60" height="49" rx="0" ry="0"/>
    <rect style="fill: #ffffff; fill-opacity: 1; stroke-opacity: 1; stroke-width: 3; stroke: #000000" x="247.7" y="156.8" width="60" height="49" rx="0" ry="0"/>
    <rect style="fill: none; stroke-opacity: 1; stroke-width: 3; stroke: #000000" x="466.16" y="156" width="60" height="49" rx="0" ry="0"/>
    <rect style="fill: #ffffff; fill-opacity: 1; stroke-opacity: 1; stroke-width: 3; stroke: #000000" x="524.66" y="155.8" width="60" height="49" rx="0" ry="0"/>
    <ellipse style="fill: #000000; fill-opacity: 1; stroke-opacity: 1; stroke-width: 3; stroke: #000000" cx="217.06" cy="182.3" rx="8.5" ry="8"/>
    <ellipse style="fill: #000000; fill-opacity: 1; stroke-opacity: 1; stroke-width: 3; stroke: #000000" cx="280.06" cy="183.3" rx="8.5" ry="8"/>
    <ellipse style="fill: #000000; fill-opacity: 1; stroke-opacity: 1; stroke-width: 3; stroke: #000000" cx="500.06" cy="181.3" rx="8.5" ry="8"/>
    <ellipse style="fill: #000000; fill-opacity: 1; stroke-opacity: 1; stroke-width: 3; stroke: #000000" cx="556.06" cy="183.3" rx="8.5" ry="8"/>
    <g>
      <line style="fill: none; stroke-opacity: 1; stroke-width: 3; stroke: #000000" x1="286.072" y1="188.957" x2="466.304" y2="296.854"/>
      <polyline style="fill: none; stroke-opacity: 1; stroke-width: 3; stroke: #000000" points="458.034,297.731 469.182,298.577 463.17,289.151 "/>
    </g>
    <g>
      <line style="fill: none; stroke-opacity: 1; stroke-width: 3; stroke: #000000" x1="556.06" y1="191.3" x2="494.496" y2="294.538"/>
      <polyline style="fill: none; stroke-opacity: 1; stroke-width: 3; stroke: #000000" points="493.605,286.27 492.778,297.419 502.194,291.391 "/>
    </g>
    <text font-size="12.7998" style="fill: #000000; fill-opacity: 1; stroke: none;text-anchor:start;font-family:sans-serif;font-style:normal;font-weight:normal" x="165" y="188">
      <tspan x="165" y="188"></tspan>
    </text>
    <text font-size="12.7998" style="fill: #000000; fill-opacity: 1; stroke: none;text-anchor:start;font-family:sans-serif;font-style:normal;font-weight:normal" x="203" y="342">
      <tspan x="203" y="342"></tspan>
    </text>
  </g>
</svg>
